	Digital Error: 	Line: 1272045	2018-08-16 07:29:56.555987 Msg: No response.. - START
Nodeguard Error: 	Line: 1272046	2018-08-16 07:30:04.343115 - START
		ADC Error: 	Line: 1272051	2018-08-16 07:30:33.960637 Msg: No ADC response from SYNC - START
	Digital Error: 	Line: 1291703	2018-08-17 11:10:58.928792 Amount: 4701 - STOP
	Solution: External Reset - digital
Nodeguard Error: 	Line: 1291718	2018-08-17 11:11:05.286894 - STOP
Solution: External Reset - digital
		ADC Error: 	Line: 1291734	2018-08-17 11:11:14.691060 - STOP
		Reason: Unknown Solution: External Reset - digital
Nodeguard Error: 	Line: 1425201	2018-08-17 18:27:45.545200 - START
Nodeguard Error: 	Line: 1425205	2018-08-17 18:27:46.823221 - STOP
Solution: Self-recovery
	Digital Error: 	Line: 1428003	2018-08-17 18:37:11.581133 Msg: No response.. - START
Nodeguard Error: 	Line: 1428005	2018-08-17 18:37:15.550199 - START
		ADC Error: 	Line: 1428013	2018-08-17 18:37:54.562891 Msg: No ADC response from SYNC - START
	Digital Error: 	Line: 1430211	2018-08-17 21:15:51.579178 Amount: 776 - STOP
	Solution: Bootloader is now in control, Microcontroller MCUCSR register contents: Watchdog Reset
		ADC Error: 	Line: 1430216	2018-08-17 21:15:54.852238 - STOP
		Reason: ADC: Conversion timeout Solution: Bootloader is now in control, Microcontroller MCUCSR register contents: Watchdog Reset
Nodeguard Error: 	Line: 1430225	2018-08-17 21:15:55.639256 - STOP
Solution: Bootloader is now in control, Microcontroller MCUCSR register contents: Watchdog Reset
	Digital Error: 	Line: 1520168	2018-08-18 02:20:18.355652 Msg: No response.. - START
	Digital Error: 	Line: 1520169	2018-08-18 02:20:18.367652 Amount: 1 - STOP
	Solution: Bootloader is now in control, Microcontroller MCUCSR register contents: Watchdog Reset
	Digital Error: 	Line: 1521410	2018-08-18 02:24:30.742053 Msg: No response.. - START
	Digital Error: 	Line: 1521411	2018-08-18 02:24:30.745052 Amount: 1 - STOP
	Solution: Bootloader is now in control, Microcontroller MCUCSR register contents: Watchdog Reset
	Digital Error: 	Line: 1521632	2018-08-18 02:25:16.544858 Msg: No response.. - START
	Digital Error: 	Line: 1521634	2018-08-18 02:25:16.568852 Amount: 1 - STOP
	Solution: Bootloader is now in control, Microcontroller MCUCSR register contents: Watchdog Reset
	Digital Error: 	Line: 1522026	2018-08-18 02:26:34.878221 Msg: No response.. - START
	Digital Error: 	Line: 1522027	2018-08-18 02:26:34.882215 Amount: 1 - STOP
	Solution: Bootloader is now in control, Microcontroller MCUCSR register contents: Watchdog Reset
	Digital Error: 	Line: 1522167	2018-08-18 02:27:14.878912 Msg: No response.. - START
	Digital Error: 	Line: 1522168	2018-08-18 02:27:14.882921 Amount: 1 - STOP
	Solution: Bootloader is now in control, Microcontroller MCUCSR register contents: Watchdog Reset
		ADC Error: 	Line: 1522286	2018-08-18 02:28:14.688957 Msg: No ADC response from SYNC - START
		ADC Error: 	Line: 1522288	2018-08-18 02:28:14.804957 - STOP
		Reason: ADC: Conversion timeout Solution: Bootloader is now in control, Microcontroller MCUCSR register contents: Watchdog Reset
		ADC Error: 	Line: 1522560	2018-08-18 02:29:34.689350 Msg: No ADC response from SYNC - START
		ADC Error: 	Line: 1522562	2018-08-18 02:29:34.938361 - STOP
		Reason: ADC: Conversion timeout Solution: Bootloader is now in control, Microcontroller MCUCSR register contents: Watchdog Reset
		ADC Error: 	Line: 1522745	2018-08-18 02:31:14.689092 Msg: No ADC response from SYNC - START
		ADC Error: 	Line: 1522810	2018-08-18 02:31:34.938453 - STOP
		Reason: ADC: Conversion timeout Solution: Bootloader is now in control, Microcontroller MCUCSR register contents: Watchdog Reset
	Digital Error: 	Line: 1522935	2018-08-18 02:31:55.927818 Msg: No response.. - START
	Digital Error: 	Line: 1522936	2018-08-18 02:31:55.932819 Amount: 1 - STOP
	Solution: Bootloader is now in control, Microcontroller MCUCSR register contents: Watchdog Reset
		ADC Error: 	Line: 1543341	2018-08-18 03:16:34.702415 Msg: No ADC response from SYNC - START
		ADC Error: 	Line: 1543502	2018-08-18 03:17:14.951115 - STOP
		Reason: ADC: Conversion timeout Solution: Self-recovery
Nodeguard Error: 	Line: 1559756	2018-08-18 03:52:05.877532 - START
Nodeguard Error: 	Line: 1559776	2018-08-18 03:52:25.877879 - STOP
Solution: Life Guarding, CAN-controller has been reinitialized
	Digital Error: 	Line: 1559778	2018-08-18 03:52:26.815897 Msg: No response.. - START
	Digital Error: 	Line: 1559779	2018-08-18 03:52:26.818896 Amount: 1 - STOP
	Solution: Life Guarding, CAN-controller has been reinitialized
		ADC Error: 	Line: 1560501	2018-08-18 03:54:54.711474 Msg: No ADC response from SYNC - START
		ADC Error: 	Line: 1560507	2018-08-18 03:54:55.752491 - STOP
		Reason: ADC: Conversion timeout Solution: Self-recovery
	Digital Error: 	Line: 1561770	2018-08-18 03:59:14.208998 Msg: No response.. - START
	Digital Error: 	Line: 1561771	2018-08-18 03:59:14.211999 Amount: 1 - STOP
	Solution: Bootloader is now in control, Microcontroller MCUCSR register contents: Watchdog Reset
		ADC Error: 	Line: 1561882	2018-08-18 03:59:34.713347 Msg: No ADC response from SYNC - START
	Digital Error: 	Line: 1561909	2018-08-18 04:00:08.216933 Msg: No response.. - START
	Digital Error: 	Line: 1561910	2018-08-18 04:00:08.220931 Amount: 1 - STOP
	Solution: Bootloader is now in control, Microcontroller MCUCSR register contents: Watchdog Reset
		ADC Error: 	Line: 1561921	2018-08-18 04:00:15.016057 - STOP
		Reason: ADC: Conversion timeout Solution: Bootloader is now in control, Microcontroller MCUCSR register contents: Watchdog Reset
	Digital Error: 	Line: 1584167	2018-08-18 04:49:50.228818 Msg: No response.. - START
	Digital Error: 	Line: 1584168	2018-08-18 04:49:50.231816 Amount: 1 - STOP
	Solution: Bootloader is now in control, Microcontroller MCUCSR register contents: Watchdog Reset
		ADC Error: 	Line: 1584175	2018-08-18 04:49:54.725886 Msg: No ADC response from SYNC - START
		ADC Error: 	Line: 1584177	2018-08-18 04:49:54.840890 - STOP
		Reason: ADC: Conversion timeout Solution: Bootloader is now in control, Microcontroller MCUCSR register contents: Watchdog Reset
	Digital Error: 	Line: 1584199	2018-08-18 04:50:10.537170 Msg: No response.. - START
	Digital Error: 	Line: 1584200	2018-08-18 04:50:10.540161 Amount: 1 - STOP
	Solution: Bootloader is now in control, Microcontroller MCUCSR register contents: Watchdog Reset
		ADC Error: 	Line: 1584309	2018-08-18 04:50:54.725926 Msg: No ADC response from SYNC - START
		ADC Error: 	Line: 1584313	2018-08-18 04:50:55.077941 - STOP
		Reason: ADC: Reset failed Solution: Bootloader is now in control, Microcontroller MCUCSR register contents: Watchdog Reset
		ADC Error: 	Line: 1610878	2018-08-18 05:47:54.740263 Msg: No ADC response from SYNC - START
		ADC Error: 	Line: 1611323	2018-08-18 05:49:15.437663 - STOP
		Reason: ADC: Reset failed Solution: Self-recovery
		ADC Error: 	Line: 1614315	2018-08-18 05:55:34.742258 Msg: No ADC response from SYNC - START
		ADC Error: 	Line: 1614421	2018-08-18 05:55:56.369628 - STOP
		Reason: ADC: Reset failed Solution: Self-recovery
		ADC Error: 	Line: 1617367	2018-08-18 06:02:54.743898 Msg: No ADC response from SYNC - START
		ADC Error: 	Line: 1617599	2018-08-18 06:03:54.860941 - STOP
		Reason: ADC: Reset failed Solution: Self-recovery
		ADC Error: 	Line: 1618052	2018-08-18 06:05:34.744678 Msg: No ADC response from SYNC - START
		ADC Error: 	Line: 1618470	2018-08-18 06:07:14.861413 - STOP
		Reason: ADC: Reset failed Solution: Self-recovery
		ADC Error: 	Line: 1618929	2018-08-18 06:08:34.745805 Msg: No ADC response from SYNC - START
		ADC Error: 	Line: 1619274	2018-08-18 06:09:54.863194 - STOP
		Reason: ADC: Reset failed Solution: Self-recovery
		ADC Error: 	Line: 1619588	2018-08-18 06:10:54.746236 Msg: No ADC response from SYNC - START
		ADC Error: 	Line: 1619908	2018-08-18 06:11:54.862286 - STOP
		Reason: ADC: Reset failed Solution: Self-recovery
		ADC Error: 	Line: 1620278	2018-08-18 06:12:54.747318 Msg: No ADC response from SYNC - START
		ADC Error: 	Line: 1620280	2018-08-18 06:12:54.862322 - STOP
		Reason: ADC: Reset failed Solution: Self-recovery
		ADC Error: 	Line: 1620613	2018-08-18 06:13:54.747359 Msg: No ADC response from SYNC - START
		ADC Error: 	Line: 1620615	2018-08-18 06:13:54.863362 - STOP
		Reason: ADC: Reset failed Solution: Self-recovery
		ADC Error: 	Line: 1621104	2018-08-18 06:15:14.747750 Msg: No ADC response from SYNC - START
		ADC Error: 	Line: 1621106	2018-08-18 06:15:14.862753 - STOP
		Reason: ADC: Reset failed Solution: Self-recovery
		ADC Error: 	Line: 1622051	2018-08-18 06:17:34.748187 Msg: No ADC response from SYNC - START
		ADC Error: 	Line: 1622273	2018-08-18 06:18:14.862885 - STOP
		Reason: ADC: Reset failed Solution: Self-recovery
		ADC Error: 	Line: 1622807	2018-08-18 06:19:34.748270 Msg: No ADC response from SYNC - START
		ADC Error: 	Line: 1622809	2018-08-18 06:19:34.864270 - STOP
		Reason: ADC: Reset failed Solution: Self-recovery
		ADC Error: 	Line: 1623342	2018-08-18 06:20:54.748660 Msg: No ADC response from SYNC - START
		ADC Error: 	Line: 1623344	2018-08-18 06:20:54.863658 - STOP
		Reason: ADC: Reset failed Solution: Self-recovery
		ADC Error: 	Line: 1623735	2018-08-18 06:21:54.749699 Msg: No ADC response from SYNC - START
		ADC Error: 	Line: 1623850	2018-08-18 06:22:14.865049 - STOP
		Reason: ADC: Reset failed Solution: Self-recovery
		ADC Error: 	Line: 1624234	2018-08-18 06:23:14.749090 Msg: No ADC response from SYNC - START
		ADC Error: 	Line: 1624455	2018-08-18 06:23:54.865787 - STOP
		Reason: ADC: Reset failed Solution: Self-recovery
		ADC Error: 	Line: 1625106	2018-08-18 06:25:34.750520 Msg: No ADC response from SYNC - START
		ADC Error: 	Line: 1625108	2018-08-18 06:25:34.865524 - STOP
		Reason: ADC: Reset failed Solution: Self-recovery
		ADC Error: 	Line: 1625471	2018-08-18 06:26:34.750562 Msg: No ADC response from SYNC - START
		ADC Error: 	Line: 1625585	2018-08-18 06:26:54.865920 - STOP
		Reason: ADC: Reset failed Solution: Self-recovery
		ADC Error: 	Line: 1625971	2018-08-18 06:27:54.750952 Msg: No ADC response from SYNC - START
		ADC Error: 	Line: 1626080	2018-08-18 06:28:14.869303 - STOP
		Reason: ADC: Reset failed Solution: Self-recovery
	Digital Error: 	Line: 1626253	2018-08-18 06:28:48.269888 Msg: No response.. - START
Nodeguard Error: 	Line: 1626255	2018-08-18 06:28:55.977025 - START
		ADC Error: 	Line: 1626259	2018-08-18 06:29:14.751343 Msg: No ADC response from SYNC - START
Nodeguard Error: 	Line: 1627135	2018-08-18 07:30:06.012654 - STOP
Solution: Bootloader is now in control, Microcontroller MCUCSR register contents: Invalid error msg
Nodeguard Error: 	Line: 1627138	2018-08-18 07:30:16.012832 - START
Nodeguard Error: 	Line: 1629112	2018-08-18 09:53:41.425064 - STOP
Solution: Self-recovery
	Digital Error: 	Line: 1629116	2018-08-18 09:53:43.779106 Amount: 1013 - STOP
	Solution: Soft Reset
		ADC Error: 	Line: 1629523	2018-08-18 09:55:14.917692 - STOP
		Reason: ADC: Reset failed Solution: Self-recovery
		ADC Error: 	Line: 1629801	2018-08-18 09:56:14.802722 Msg: No ADC response from SYNC - START
		ADC Error: 	Line: 1629983	2018-08-18 09:56:54.918427 - STOP
		Reason: ADC: Reset failed Solution: Self-recovery
		ADC Error: 	Line: 1630279	2018-08-18 09:57:54.803461 Msg: No ADC response from SYNC - START
		ADC Error: 	Line: 1631003	2018-08-18 10:00:34.920244 - STOP
		Reason: ADC: Reset failed Solution: Self-recovery
		ADC Error: 	Line: 1631284	2018-08-18 10:01:34.804279 Msg: No ADC response from SYNC - START
		ADC Error: 	Line: 1631288	2018-08-18 10:01:34.925284 - STOP
		Reason: ADC: Reset failed Solution: Self-recovery
		ADC Error: 	Line: 1631556	2018-08-18 10:02:34.804321 Msg: No ADC response from SYNC - START
		ADC Error: 	Line: 1633818	2018-08-18 10:10:56.270015 - STOP
		Reason: ADC: Reset failed Solution: Self-recovery
		ADC Error: 	Line: 1634458	2018-08-18 10:13:14.807423 Msg: No ADC response from SYNC - START
		ADC Error: 	Line: 1635367	2018-08-18 10:16:34.951894 - STOP
		Reason: ADC: Reset failed Solution: Self-recovery
		ADC Error: 	Line: 1635623	2018-08-18 10:17:34.807935 Msg: No ADC response from SYNC - START
		ADC Error: 	Line: 1636447	2018-08-18 10:21:55.057458 - STOP
		Reason: ADC: Reset failed Solution: Self-recovery
		ADC Error: 	Line: 1636619	2018-08-18 10:22:54.809494 Msg: No ADC response from SYNC - START
		ADC Error: 	Line: 1636735	2018-08-18 10:23:34.925191 - STOP
		Reason: ADC: Reset failed Solution: Self-recovery
		ADC Error: 	Line: 1637028	2018-08-18 10:25:14.810917 Msg: No ADC response from SYNC - START
		ADC Error: 	Line: 1637203	2018-08-18 10:26:14.926967 - STOP
		Reason: ADC: Reset failed Solution: Self-recovery
		ADC Error: 	Line: 1637376	2018-08-18 10:27:14.811002 Msg: No ADC response from SYNC - START
		ADC Error: 	Line: 1637945	2018-08-18 10:29:34.927439 - STOP
		Reason: ADC: Reset failed Solution: Self-recovery
		ADC Error: 	Line: 1638218	2018-08-18 10:30:34.812470 Msg: No ADC response from SYNC - START
		ADC Error: 	Line: 1638760	2018-08-18 10:32:34.927562 - STOP
		Reason: ADC: Reset failed Solution: Self-recovery
		ADC Error: 	Line: 1639033	2018-08-18 10:33:34.812598 Msg: No ADC response from SYNC - START
		ADC Error: 	Line: 1639127	2018-08-18 10:33:54.927951 - STOP
		Reason: ADC: Reset failed Solution: Self-recovery
		ADC Error: 	Line: 1639665	2018-08-18 10:35:54.814025 Msg: No ADC response from SYNC - START
		ADC Error: 	Line: 1639667	2018-08-18 10:35:54.929034 - STOP
		Reason: ADC: Reset failed Solution: Self-recovery
		ADC Error: 	Line: 1639939	2018-08-18 10:36:54.814065 Msg: No ADC response from SYNC - START
		ADC Error: 	Line: 1641298	2018-08-18 10:41:54.930282 - STOP
		Reason: ADC: Reset failed Solution: Self-recovery
		ADC Error: 	Line: 1641570	2018-08-18 10:42:54.815312 Msg: No ADC response from SYNC - START
		ADC Error: 	Line: 1641572	2018-08-18 10:42:54.930323 - STOP
		Reason: ADC: Reset failed Solution: Self-recovery
		ADC Error: 	Line: 1641843	2018-08-18 10:43:54.815358 Msg: No ADC response from SYNC - START
		ADC Error: 	Line: 1642117	2018-08-18 10:44:54.931406 - STOP
		Reason: ADC: Reset failed Solution: Self-recovery
		ADC Error: 	Line: 1642392	2018-08-18 10:45:54.816436 Msg: No ADC response from SYNC - START
		ADC Error: 	Line: 1642574	2018-08-18 10:46:34.931134 - STOP
		Reason: ADC: Reset failed Solution: Self-recovery
		ADC Error: 	Line: 1642847	2018-08-18 10:47:34.816175 Msg: No ADC response from SYNC - START
		ADC Error: 	Line: 1643209	2018-08-18 10:48:54.931570 - STOP
		Reason: ADC: Reset failed Solution: Self-recovery
		ADC Error: 	Line: 1643481	2018-08-18 10:49:54.816605 Msg: No ADC response from SYNC - START
		ADC Error: 	Line: 1644567	2018-08-18 10:53:54.932777 - STOP
		Reason: ADC: Reset failed Solution: Self-recovery
		ADC Error: 	Line: 1645429	2018-08-18 10:56:54.818890 Msg: No ADC response from SYNC - START
		ADC Error: 	Line: 1645431	2018-08-18 10:56:54.933901 - STOP
		Reason: ADC: Reset failed Solution: Self-recovery
		ADC Error: 	Line: 1645883	2018-08-18 10:58:34.819625 Msg: No ADC response from SYNC - START
		ADC Error: 	Line: 1646518	2018-08-18 11:00:54.935066 - STOP
		Reason: ADC: Reset failed Solution: Self-recovery
		ADC Error: 	Line: 1646879	2018-08-18 11:02:14.820446 Msg: No ADC response from SYNC - START
		ADC Error: 	Line: 1646973	2018-08-18 11:02:34.936802 - STOP
		Reason: ADC: Reset failed Solution: Self-recovery
		ADC Error: 	Line: 1647520	2018-08-18 11:04:34.820876 Msg: No ADC response from SYNC - START
		ADC Error: 	Line: 1647610	2018-08-18 11:04:54.936227 - STOP
		Reason: ADC: Reset failed Solution: Self-recovery
		ADC Error: 	Line: 1647889	2018-08-18 11:05:54.821266 Msg: No ADC response from SYNC - START
		ADC Error: 	Line: 1648974	2018-08-18 11:09:55.002446 - STOP
		Reason: ADC: Reset failed Solution: Self-recovery
		ADC Error: 	Line: 1649342	2018-08-18 11:11:14.821829 Msg: No ADC response from SYNC - START
		ADC Error: 	Line: 1649433	2018-08-18 11:11:34.937182 - STOP
		Reason: ADC: Reset failed Solution: Self-recovery
		ADC Error: 	Line: 1650346	2018-08-18 11:14:54.822647 Msg: No ADC response from SYNC - START
		ADC Error: 	Line: 1651435	2018-08-18 11:18:55.502826 - STOP
		Reason: ADC: Reset failed Solution: Self-recovery
		ADC Error: 	Line: 1651706	2018-08-18 11:19:54.823861 Msg: No ADC response from SYNC - START
		ADC Error: 	Line: 1651710	2018-08-18 11:19:55.639880 - STOP
		Reason: ADC: Reset failed Solution: Self-recovery
		ADC Error: 	Line: 1652072	2018-08-18 11:21:14.824254 Msg: No ADC response from SYNC - START
		ADC Error: 	Line: 1652429	2018-08-18 11:22:35.989666 - STOP
		Reason: ADC: Reset failed Solution: Self-recovery
		ADC Error: 	Line: 1652698	2018-08-18 11:23:34.824681 Msg: No ADC response from SYNC - START
		ADC Error: 	Line: 1652885	2018-08-18 11:24:16.226408 - STOP
		Reason: ADC: Reset failed Solution: Self-recovery
		ADC Error: 	Line: 1653153	2018-08-18 11:25:14.825419 Msg: No ADC response from SYNC - START
		ADC Error: 	Line: 1653431	2018-08-18 11:26:16.493493 - STOP
		Reason: ADC: Reset failed Solution: Self-recovery
		ADC Error: 	Line: 1653880	2018-08-18 11:27:54.826200 Msg: No ADC response from SYNC - START
		ADC Error: 	Line: 1654423	2018-08-18 11:29:54.959296 - STOP
		Reason: ADC: Reset failed Solution: Self-recovery
		ADC Error: 	Line: 1654684	2018-08-18 11:30:54.827328 Msg: No ADC response from SYNC - START
		ADC Error: 	Line: 1654789	2018-08-18 11:31:15.141683 - STOP
		Reason: ADC: Reset failed Solution: Self-recovery
		ADC Error: 	Line: 1655163	2018-08-18 11:33:14.827763 Msg: No ADC response from SYNC - START
		ADC Error: 	Line: 1655911	2018-08-18 11:37:34.944292 - STOP
		Reason: ADC: Reset failed Solution: Self-recovery
		ADC Error: 	Line: 1656139	2018-08-18 11:38:54.829672 Msg: No ADC response from SYNC - START
		ADC Error: 	Line: 1656693	2018-08-18 11:41:54.945813 - STOP
		Reason: ADC: Reset failed Solution: Life Guarding, CAN-controller has been reinitialized
		ADC Error: 	Line: 1657094	2018-08-18 11:43:34.831545 Msg: No ADC response from SYNC - START
		ADC Error: 	Line: 1657548	2018-08-18 11:45:14.947289 - STOP
		Reason: ADC: Reset failed Solution: Self-recovery
		ADC Error: 	Line: 1657825	2018-08-18 11:46:14.832323 Msg: No ADC response from SYNC - START
		ADC Error: 	Line: 1657915	2018-08-18 11:46:34.947673 - STOP
		Reason: ADC: Reset failed Solution: Self-recovery
		ADC Error: 	Line: 1658186	2018-08-18 11:47:34.832713 Msg: No ADC response from SYNC - START
		ADC Error: 	Line: 1658460	2018-08-18 11:48:34.947764 - STOP
		Reason: ADC: Reset failed Solution: Self-recovery
		ADC Error: 	Line: 1658733	2018-08-18 11:49:34.832800 Msg: No ADC response from SYNC - START
		ADC Error: 	Line: 1658824	2018-08-18 11:49:54.948158 - STOP
		Reason: ADC: Reset failed Solution: Self-recovery
		ADC Error: 	Line: 1659096	2018-08-18 11:50:54.833191 Msg: No ADC response from SYNC - START
		ADC Error: 	Line: 1659821	2018-08-18 11:53:34.948999 - STOP
		Reason: ADC: Reset failed Solution: Self-recovery
		ADC Error: 	Line: 1660093	2018-08-18 11:54:34.834059 Msg: No ADC response from SYNC - START
		ADC Error: 	Line: 1660275	2018-08-18 11:55:14.949782 - STOP
		Reason: ADC: Reset failed Solution: Self-recovery
		ADC Error: 	Line: 1661014	2018-08-18 11:57:54.834591 Msg: No ADC response from SYNC - START
		ADC Error: 	Line: 1661016	2018-08-18 11:57:54.949594 - STOP
		Reason: ADC: Reset failed Solution: Self-recovery
		ADC Error: 	Line: 1661288	2018-08-18 11:58:54.835634 Msg: No ADC response from SYNC - START
		ADC Error: 	Line: 1661378	2018-08-18 11:59:14.949983 - STOP
		Reason: ADC: Reset failed Solution: Self-recovery
		ADC Error: 	Line: 1662027	2018-08-18 12:01:34.835411 Msg: No ADC response from SYNC - START
		ADC Error: 	Line: 1662658	2018-08-18 12:03:54.952845 - STOP
		Reason: ADC: Reset failed Solution: Self-recovery
		ADC Error: 	Line: 1662930	2018-08-18 12:04:54.836887 Msg: No ADC response from SYNC - START
		ADC Error: 	Line: 1662932	2018-08-18 12:04:55.072896 - STOP
		Reason: ADC: Reset failed Solution: Self-recovery
		ADC Error: 	Line: 1663295	2018-08-18 12:06:14.837273 Msg: No ADC response from SYNC - START
		ADC Error: 	Line: 1663297	2018-08-18 12:06:14.952275 - STOP
		Reason: ADC: Reset failed Solution: Self-recovery
		ADC Error: 	Line: 1663753	2018-08-18 12:07:54.838013 Msg: No ADC response from SYNC - START
		ADC Error: 	Line: 1665024	2018-08-18 12:12:34.954891 - STOP
		Reason: ADC: Reset failed Solution: Self-recovery
		ADC Error: 	Line: 1665296	2018-08-18 12:13:34.839928 Msg: No ADC response from SYNC - START
		ADC Error: 	Line: 1665566	2018-08-18 12:14:34.954981 - STOP
		Reason: ADC: Reset failed Solution: Self-recovery
		ADC Error: 	Line: 1665844	2018-08-18 12:15:34.840016 Msg: No ADC response from SYNC - START
		ADC Error: 	Line: 1665846	2018-08-18 12:15:34.955025 - STOP
		Reason: ADC: Reset failed Solution: Self-recovery
		ADC Error: 	Line: 1668660	2018-08-18 12:25:54.842822 Msg: No ADC response from SYNC - START
		ADC Error: 	Line: 1669203	2018-08-18 12:27:54.958917 - STOP
		Reason: ADC: Reset failed Solution: External Reset - analog
		ADC Error: 	Line: 1669502	2018-08-18 12:28:54.842957 Msg: No ADC response from SYNC - START
		ADC Error: 	Line: 1669869	2018-08-18 12:30:15.252354 - STOP
		Reason: ADC: Reset failed Solution: External Reset - analog
		ADC Error: 	Line: 1670135	2018-08-18 12:31:14.844390 Msg: No ADC response from SYNC - START
		ADC Error: 	Line: 1670323	2018-08-18 12:31:55.480105 - STOP
		Reason: ADC: Reset failed Solution: Self-recovery
		ADC Error: 	Line: 1670588	2018-08-18 12:32:54.844134 Msg: No ADC response from SYNC - START
		ADC Error: 	Line: 1670592	2018-08-18 12:32:55.612154 - STOP
		Reason: ADC: Reset failed Solution: Self-recovery
		ADC Error: 	Line: 1670862	2018-08-18 12:33:54.844178 Msg: No ADC response from SYNC - START
		ADC Error: 	Line: 1670958	2018-08-18 12:34:15.793548 - STOP
		Reason: ADC: Reset failed Solution: Self-recovery
		ADC Error: 	Line: 1671686	2018-08-18 12:36:54.845313 Msg: No ADC response from SYNC - START
		ADC Error: 	Line: 1672595	2018-08-18 12:40:16.632832 - STOP
		Reason: ADC: Reset failed Solution: Self-recovery
		ADC Error: 	Line: 1672859	2018-08-18 12:41:14.847846 Msg: No ADC response from SYNC - START
		ADC Error: 	Line: 1673775	2018-08-18 12:44:35.172340 - STOP
		Reason: ADC: Reset failed Solution: Self-recovery
		ADC Error: 	Line: 1674151	2018-08-18 12:46:34.849416 Msg: No ADC response from SYNC - START
		ADC Error: 	Line: 1674213	2018-08-18 12:46:55.213777 - STOP
		Reason: ADC: Reset failed Solution: Self-recovery
		ADC Error: 	Line: 1674617	2018-08-18 12:49:14.850199 Msg: No ADC response from SYNC - START
		ADC Error: 	Line: 1674966	2018-08-18 12:51:14.965299 - STOP
		Reason: ADC: Reset failed Solution: Self-recovery
		ADC Error: 	Line: 1675136	2018-08-18 12:52:14.850335 Msg: No ADC response from SYNC - START
		ADC Error: 	Line: 1675197	2018-08-18 12:52:34.965690 - STOP
		Reason: ADC: Reset failed Solution: Self-recovery
	Digital Error: 	Line: 1675328	2018-08-18 12:53:34.400717 Msg: No response.. - START
		ADC Error: 	Line: 1675329	2018-08-18 12:53:34.850727 Msg: No ADC response from SYNC - START
Nodeguard Error: 	Line: 1675330	2018-08-18 12:53:36.193755 - START
Nodeguard Error: 	Line: 1675384	2018-08-18 12:54:06.194278 - STOP
Solution: Irregular reset (Watchdog, Brown-out or JTAG), Microcontroller MCUCSR register contents: Invalid error msg
	Digital Error: 	Line: 1675475	2018-08-18 12:54:27.505641 Amount: 2 - STOP
	Solution: Irregular reset (Watchdog, Brown-out or JTAG), Microcontroller MCUCSR register contents: Invalid error msg
		ADC Error: 	Line: 1675609	2018-08-18 12:54:54.969126 - STOP
		Reason: ADC: Reset failed Solution: Irregular reset (Watchdog, Brown-out or JTAG), Microcontroller MCUCSR register contents: Invalid error msg
		ADC Error: 	Line: 1676064	2018-08-18 12:56:34.852856 Msg: No ADC response from SYNC - START
		ADC Error: 	Line: 1676158	2018-08-18 12:56:55.102210 - STOP
		Reason: ADC: Reset failed Solution: Self-recovery
		ADC Error: 	Line: 1676429	2018-08-18 12:57:54.853248 Msg: No ADC response from SYNC - START
		ADC Error: 	Line: 1676700	2018-08-18 12:58:54.968303 - STOP
		Reason: ADC: Reset failed Solution: Self-recovery
		ADC Error: 	Line: 1676987	2018-08-18 12:59:54.853341 Msg: No ADC response from SYNC - START
		ADC Error: 	Line: 1677169	2018-08-18 13:00:35.089044 - STOP
		Reason: ADC: Reset failed Solution: Self-recovery
		ADC Error: 	Line: 1677441	2018-08-18 13:01:34.854077 Msg: No ADC response from SYNC - START
		ADC Error: 	Line: 1677535	2018-08-18 13:01:55.231439 - STOP
		Reason: ADC: Reset failed Solution: Self-recovery
		ADC Error: 	Line: 1678085	2018-08-18 13:03:54.854518 Msg: No ADC response from SYNC - START
		ADC Error: 	Line: 1678452	2018-08-18 13:05:14.969920 - STOP
		Reason: ADC: Reset failed Solution: Self-recovery
		ADC Error: 	Line: 1678720	2018-08-18 13:06:14.854958 Msg: No ADC response from SYNC - START
		ADC Error: 	Line: 1679086	2018-08-18 13:07:34.970358 - STOP
		Reason: ADC: Reset failed Solution: Self-recovery
		ADC Error: 	Line: 1679541	2018-08-18 13:09:14.855094 Msg: No ADC response from SYNC - START
		ADC Error: 	Line: 1679631	2018-08-18 13:09:34.970450 - STOP
		Reason: ADC: Reset failed Solution: Self-recovery
		ADC Error: 	Line: 1679902	2018-08-18 13:10:34.855487 Msg: No ADC response from SYNC - START
		ADC Error: 	Line: 1679996	2018-08-18 13:10:54.970842 - STOP
		Reason: ADC: Reset failed Solution: Self-recovery
		ADC Error: 	Line: 1680448	2018-08-18 13:12:34.856574 Msg: No ADC response from SYNC - START
		ADC Error: 	Line: 1680989	2018-08-18 13:14:35.178671 - STOP
		Reason: ADC: Reset failed Solution: Self-recovery
		ADC Error: 	Line: 1681446	2018-08-18 13:16:14.857410 Msg: No ADC response from SYNC - START
		ADC Error: 	Line: 1681722	2018-08-18 13:17:15.539472 - STOP
		Reason: ADC: Reset failed Solution: Self-recovery
		ADC Error: 	Line: 1681991	2018-08-18 13:18:14.857501 Msg: No ADC response from SYNC - START
		ADC Error: 	Line: 1681995	2018-08-18 13:18:15.674512 - STOP
		Reason: ADC: Reset failed Solution: Self-recovery
		ADC Error: 	Line: 1682264	2018-08-18 13:19:14.858546 Msg: No ADC response from SYNC - START
		ADC Error: 	Line: 1682268	2018-08-18 13:19:15.808561 - STOP
		Reason: ADC: Reset failed Solution: Self-recovery
		ADC Error: 	Line: 1682538	2018-08-18 13:20:14.858593 Msg: No ADC response from SYNC - START
		ADC Error: 	Line: 1682814	2018-08-18 13:21:16.075663 - STOP
		Reason: ADC: Reset failed Solution: Self-recovery
		ADC Error: 	Line: 1683447	2018-08-18 13:23:34.859091 Msg: No ADC response from SYNC - START
		ADC Error: 	Line: 1683813	2018-08-18 13:24:56.634524 - STOP
		Reason: ADC: Reset failed Solution: Self-recovery
		ADC Error: 	Line: 1684181	2018-08-18 13:26:14.859887 Msg: No ADC response from SYNC - START
		ADC Error: 	Line: 1684276	2018-08-18 13:26:36.793268 - STOP
		Reason: ADC: Reset failed Solution: Self-recovery
		ADC Error: 	Line: 1684819	2018-08-18 13:28:34.860333 Msg: No ADC response from SYNC - START
		ADC Error: 	Line: 1684911	2018-08-18 13:28:55.074691 - STOP
		Reason: ADC: Reset failed Solution: Self-recovery
		ADC Error: 	Line: 1685246	2018-08-18 13:30:14.861077 Msg: No ADC response from SYNC - START
		ADC Error: 	Line: 1685364	2018-08-18 13:30:55.073789 - STOP
		Reason: ADC: Reset failed Solution: Self-recovery
		ADC Error: 	Line: 1685533	2018-08-18 13:31:54.860829 Msg: No ADC response from SYNC - START
		ADC Error: 	Line: 1685589	2018-08-18 13:32:14.976186 - STOP
		Reason: ADC: Reset failed Solution: Self-recovery
		ADC Error: 	Line: 1685948	2018-08-18 13:34:14.862273 Msg: No ADC response from SYNC - START
		ADC Error: 	Line: 1686178	2018-08-18 13:35:34.977674 - STOP
		Reason: ADC: Reset failed Solution: Self-recovery
		ADC Error: 	Line: 1686410	2018-08-18 13:36:54.862072 Msg: No ADC response from SYNC - START
		ADC Error: 	Line: 1686699	2018-08-18 13:38:34.977829 - STOP
		Reason: ADC: Reset failed Solution: Self-recovery
		ADC Error: 	Line: 1687123	2018-08-18 13:40:34.862922 Msg: No ADC response from SYNC - START
		ADC Error: 	Line: 1687305	2018-08-18 13:41:14.978622 - STOP
		Reason: ADC: Reset failed Solution: Self-recovery
		ADC Error: 	Line: 1687740	2018-08-18 13:42:54.863373 Msg: No ADC response from SYNC - START
		ADC Error: 	Line: 1688194	2018-08-18 13:44:34.979129 - STOP
		Reason: ADC: Reset failed Solution: Self-recovery
		ADC Error: 	Line: 1688755	2018-08-18 13:46:34.864215 Msg: No ADC response from SYNC - START
		ADC Error: 	Line: 1688757	2018-08-18 13:46:34.980223 - STOP
		Reason: ADC: Reset failed Solution: Self-recovery
		ADC Error: 	Line: 1689030	2018-08-18 13:47:34.865263 Msg: No ADC response from SYNC - START
		ADC Error: 	Line: 1689481	2018-08-18 13:49:14.981016 - STOP
		Reason: ADC: Reset failed Solution: Self-recovery
		ADC Error: 	Line: 1690318	2018-08-18 13:52:14.866153 Msg: No ADC response from SYNC - START
		ADC Error: 	Line: 1690320	2018-08-18 13:52:14.981158 - STOP
		Reason: ADC: Reset failed Solution: Self-recovery
		ADC Error: 	Line: 1690587	2018-08-18 13:53:14.866201 Msg: No ADC response from SYNC - START
		ADC Error: 	Line: 1690589	2018-08-18 13:53:14.982206 - STOP
		Reason: ADC: Reset failed Solution: Self-recovery
		ADC Error: 	Line: 1690850	2018-08-18 13:54:14.866249 Msg: No ADC response from SYNC - START
		ADC Error: 	Line: 1690852	2018-08-18 13:54:14.982255 - STOP
		Reason: ADC: Reset failed Solution: Self-recovery
		ADC Error: 	Line: 1691123	2018-08-18 13:55:14.867300 Msg: No ADC response from SYNC - START
		ADC Error: 	Line: 1691125	2018-08-18 13:55:14.982298 - STOP
		Reason: ADC: Reset failed Solution: Self-recovery
		ADC Error: 	Line: 1691396	2018-08-18 13:56:14.867349 Msg: No ADC response from SYNC - START
		ADC Error: 	Line: 1691398	2018-08-18 13:56:14.982355 - STOP
		Reason: ADC: Reset failed Solution: Self-recovery
		ADC Error: 	Line: 1691763	2018-08-18 13:57:34.867749 Msg: No ADC response from SYNC - START
		ADC Error: 	Line: 1691854	2018-08-18 13:57:54.983109 - STOP
		Reason: ADC: Reset failed Solution: Self-recovery
		ADC Error: 	Line: 1692407	2018-08-18 13:59:54.868197 Msg: No ADC response from SYNC - START
		ADC Error: 	Line: 1692590	2018-08-18 14:00:34.982904 - STOP
		Reason: ADC: Reset failed Solution: Self-recovery
		ADC Error: 	Line: 1692945	2018-08-18 14:01:54.868297 Msg: No ADC response from SYNC - START
		ADC Error: 	Line: 1693039	2018-08-18 14:02:14.983653 - STOP
		Reason: ADC: Reset failed Solution: Self-recovery
		ADC Error: 	Line: 1693311	2018-08-18 14:03:14.868698 Msg: No ADC response from SYNC - START
		ADC Error: 	Line: 1693854	2018-08-18 14:05:14.984801 - STOP
		Reason: ADC: Reset failed Solution: Self-recovery
		ADC Error: 	Line: 1694409	2018-08-18 14:07:14.869894 Msg: No ADC response from SYNC - START
		ADC Error: 	Line: 1694503	2018-08-18 14:07:34.985250 - STOP
		Reason: ADC: Reset failed Solution: Self-recovery
		ADC Error: 	Line: 1695046	2018-08-18 14:09:34.870342 Msg: No ADC response from SYNC - START
		ADC Error: 	Line: 1696222	2018-08-18 14:13:54.987902 - STOP
		Reason: ADC: Reset failed Solution: Self-recovery
		ADC Error: 	Line: 1696677	2018-08-18 14:15:34.872550 Msg: No ADC response from SYNC - START
		ADC Error: 	Line: 1696679	2018-08-18 14:15:34.987648 - STOP
		Reason: ADC: Reset failed Solution: Self-recovery
		ADC Error: 	Line: 1697042	2018-08-18 14:16:54.872546 Msg: No ADC response from SYNC - START
		ADC Error: 	Line: 1697312	2018-08-18 14:17:54.988107 - STOP
		Reason: ADC: Reset failed Solution: Self-recovery
		ADC Error: 	Line: 1697583	2018-08-18 14:18:54.873147 Msg: No ADC response from SYNC - START
		ADC Error: 	Line: 1697585	2018-08-18 14:18:54.990152 - STOP
		Reason: ADC: Reset failed Solution: Self-recovery
		ADC Error: 	Line: 1697950	2018-08-18 14:20:14.873550 Msg: No ADC response from SYNC - START
		ADC Error: 	Line: 1698129	2018-08-18 14:20:54.989257 - STOP
		Reason: ADC: Reset failed Solution: Self-recovery
		ADC Error: 	Line: 1698911	2018-08-18 14:23:34.875048 Msg: No ADC response from SYNC - START
		ADC Error: 	Line: 1699000	2018-08-18 14:23:54.991402 - STOP
		Reason: ADC: Reset failed Solution: Self-recovery
		ADC Error: 	Line: 1699370	2018-08-18 14:25:14.874794 Msg: No ADC response from SYNC - START
		ADC Error: 	Line: 1699372	2018-08-18 14:25:14.993801 - STOP
		Reason: ADC: Reset failed Solution: Self-recovery
		ADC Error: 	Line: 1700834	2018-08-18 14:30:34.876387 Msg: No ADC response from SYNC - START
		ADC Error: 	Line: 1701110	2018-08-18 14:31:35.521451 - STOP
		Reason: ADC: Reset failed Solution: Self-recovery
		ADC Error: 	Line: 1701386	2018-08-18 14:32:34.877480 Msg: No ADC response from SYNC - START
		ADC Error: 	Line: 1701663	2018-08-18 14:33:35.790546 - STOP
		Reason: ADC: Reset failed Solution: Self-recovery
		ADC Error: 	Line: 1701933	2018-08-18 14:34:34.877581 Msg: No ADC response from SYNC - START
		ADC Error: 	Line: 1702118	2018-08-18 14:35:16.014304 - STOP
		Reason: ADC: Reset failed Solution: Self-recovery
		ADC Error: 	Line: 1702387	2018-08-18 14:36:14.878324 Msg: No ADC response from SYNC - START
		ADC Error: 	Line: 1702391	2018-08-18 14:36:16.148347 - STOP
		Reason: ADC: Reset failed Solution: Self-recovery
		ADC Error: 	Line: 1702660	2018-08-18 14:37:14.878378 Msg: No ADC response from SYNC - START
		ADC Error: 	Line: 1702850	2018-08-18 14:37:56.375101 - STOP
		Reason: ADC: Reset failed Solution: Self-recovery
		ADC Error: 	Line: 1703238	2018-08-18 14:39:14.878476 Msg: No ADC response from SYNC - START
		ADC Error: 	Line: 1703697	2018-08-18 14:40:56.782253 - STOP
		Reason: ADC: Reset failed Solution: Self-recovery
		ADC Error: 	Line: 1703966	2018-08-18 14:41:54.879272 Msg: No ADC response from SYNC - START
		ADC Error: 	Line: 1704329	2018-08-18 14:43:15.057679 - STOP
		Reason: ADC: Reset failed Solution: Self-recovery
		ADC Error: 	Line: 1704758	2018-08-18 14:44:54.881416 Msg: No ADC response from SYNC - START
		ADC Error: 	Line: 1704990	2018-08-18 14:46:15.190830 - STOP
		Reason: ADC: Reset failed Solution: Self-recovery
		ADC Error: 	Line: 1705286	2018-08-18 14:47:54.881573 Msg: No ADC response from SYNC - START
		ADC Error: 	Line: 1705288	2018-08-18 14:47:54.996578 - STOP
		Reason: ADC: Reset failed Solution: Self-recovery
		ADC Error: 	Line: 1705581	2018-08-18 14:49:34.882322 Msg: No ADC response from SYNC - START
		ADC Error: 	Line: 1705756	2018-08-18 14:50:34.998379 - STOP
		Reason: ADC: Reset failed Solution: Self-recovery
		ADC Error: 	Line: 1705932	2018-08-18 14:51:34.882426 Msg: No ADC response from SYNC - START
		ADC Error: 	Line: 1706995	2018-08-18 14:56:34.999672 - STOP
		Reason: ADC: Reset failed Solution: Self-recovery
		ADC Error: 	Line: 1707265	2018-08-18 14:57:34.883725 Msg: No ADC response from SYNC - START
		ADC Error: 	Line: 1707267	2018-08-18 14:57:34.999731 - STOP
		Reason: ADC: Reset failed Solution: Self-recovery
		ADC Error: 	Line: 1707817	2018-08-18 14:59:34.884824 Msg: No ADC response from SYNC - START
		ADC Error: 	Line: 1707997	2018-08-18 15:00:15.000522 - STOP
		Reason: ADC: Reset failed Solution: Self-recovery
		ADC Error: 	Line: 1708944	2018-08-18 15:03:34.886028 Msg: No ADC response from SYNC - START
		ADC Error: 	Line: 1709303	2018-08-18 15:04:55.001438 - STOP
		Reason: ADC: Reset failed Solution: Self-recovery
		ADC Error: 	Line: 1709852	2018-08-18 15:06:54.886550 Msg: No ADC response from SYNC - START
		ADC Error: 	Line: 1709946	2018-08-18 15:07:15.001894 - STOP
		Reason: ADC: Reset failed Solution: Self-recovery
		ADC Error: 	Line: 1710213	2018-08-18 15:08:14.886951 Msg: No ADC response from SYNC - START
		ADC Error: 	Line: 1710215	2018-08-18 15:08:15.001958 - STOP
		Reason: ADC: Reset failed Solution: Self-recovery
		ADC Error: 	Line: 1710603	2018-08-18 15:09:34.887357 Msg: No ADC response from SYNC - START
		ADC Error: 	Line: 1710780	2018-08-18 15:10:15.002068 - STOP
		Reason: ADC: Reset failed Solution: Self-recovery
		ADC Error: 	Line: 1711625	2018-08-18 15:13:14.888218 Msg: No ADC response from SYNC - START
		ADC Error: 	Line: 1711715	2018-08-18 15:13:35.003574 - STOP
		Reason: ADC: Reset failed Solution: Self-recovery
		ADC Error: 	Line: 1711989	2018-08-18 15:14:34.888620 Msg: No ADC response from SYNC - START
		ADC Error: 	Line: 1712169	2018-08-18 15:15:15.004325 - STOP
		Reason: ADC: Reset failed Solution: Self-recovery
		ADC Error: 	Line: 1712629	2018-08-18 15:16:54.889070 Msg: No ADC response from SYNC - START
		ADC Error: 	Line: 1712631	2018-08-18 15:16:55.004077 - STOP
		Reason: ADC: Reset failed Solution: Self-recovery
		ADC Error: 	Line: 1712902	2018-08-18 15:17:54.889121 Msg: No ADC response from SYNC - START
		ADC Error: 	Line: 1712904	2018-08-18 15:17:55.005127 - STOP
		Reason: ADC: Reset failed Solution: Self-recovery
		ADC Error: 	Line: 1713223	2018-08-18 15:18:54.889171 Msg: No ADC response from SYNC - START
		ADC Error: 	Line: 1713225	2018-08-18 15:18:55.008178 - STOP
		Reason: ADC: Reset failed Solution: Self-recovery
		ADC Error: 	Line: 1713492	2018-08-18 15:19:54.889227 Msg: No ADC response from SYNC - START
		ADC Error: 	Line: 1713494	2018-08-18 15:19:55.004231 - STOP
		Reason: ADC: Reset failed Solution: Self-recovery
		ADC Error: 	Line: 1713767	2018-08-18 15:20:54.890281 Msg: No ADC response from SYNC - START
		ADC Error: 	Line: 1713863	2018-08-18 15:21:15.005632 - STOP
		Reason: ADC: Reset failed Solution: Self-recovery
		ADC Error: 	Line: 1714599	2018-08-18 15:23:54.890452 Msg: No ADC response from SYNC - START
		ADC Error: 	Line: 1714689	2018-08-18 15:24:15.005810 - STOP
		Reason: ADC: Reset failed Solution: Self-recovery
		ADC Error: 	Line: 1714960	2018-08-18 15:25:14.890860 Msg: No ADC response from SYNC - START
		ADC Error: 	Line: 1715414	2018-08-18 15:26:55.006626 - STOP
		Reason: ADC: Reset failed Solution: Self-recovery
		ADC Error: 	Line: 1715785	2018-08-18 15:28:14.892023 Msg: No ADC response from SYNC - START
		ADC Error: 	Line: 1715787	2018-08-18 15:28:15.007029 - STOP
		Reason: ADC: Reset failed Solution: Self-recovery
		ADC Error: 	Line: 1716147	2018-08-18 15:29:34.892422 Msg: No ADC response from SYNC - START
		ADC Error: 	Line: 1716510	2018-08-18 15:30:55.007834 - STOP
		Reason: ADC: Reset failed Solution: Self-recovery
		ADC Error: 	Line: 1716898	2018-08-18 15:32:14.893234 Msg: No ADC response from SYNC - START
		ADC Error: 	Line: 1716900	2018-08-18 15:32:15.008236 - STOP
		Reason: ADC: Reset failed Solution: Self-recovery
		ADC Error: 	Line: 1717173	2018-08-18 15:33:14.893281 Msg: No ADC response from SYNC - START
		ADC Error: 	Line: 1717628	2018-08-18 15:34:55.009041 - STOP
		Reason: ADC: Reset failed Solution: Self-recovery
		ADC Error: 	Line: 1717896	2018-08-18 15:35:54.894091 Msg: No ADC response from SYNC - START
		ADC Error: 	Line: 1717898	2018-08-18 15:35:55.009093 - STOP
		Reason: ADC: Reset failed Solution: Self-recovery
		ADC Error: 	Line: 1718271	2018-08-18 15:37:14.894497 Msg: No ADC response from SYNC - START
		ADC Error: 	Line: 1718449	2018-08-18 15:37:55.009202 - STOP
		Reason: ADC: Reset failed Solution: Self-recovery
		ADC Error: 	Line: 1718999	2018-08-18 15:39:54.895313 Msg: No ADC response from SYNC - START
		ADC Error: 	Line: 1719361	2018-08-18 15:41:15.010723 - STOP
		Reason: ADC: Reset failed Solution: Self-recovery
		ADC Error: 	Line: 1719833	2018-08-18 15:42:54.895475 Msg: No ADC response from SYNC - START
		ADC Error: 	Line: 1720742	2018-08-18 15:46:15.523003 - STOP
		Reason: ADC: Reset failed Solution: Self-recovery
		ADC Error: 	Line: 1721011	2018-08-18 15:47:14.897038 Msg: No ADC response from SYNC - START
		ADC Error: 	Line: 1721015	2018-08-18 15:47:15.657050 - STOP
		Reason: ADC: Reset failed Solution: Self-recovery
		ADC Error: 	Line: 1721483	2018-08-18 15:48:54.896797 Msg: No ADC response from SYNC - START
		ADC Error: 	Line: 1721577	2018-08-18 15:49:15.926166 - STOP
		Reason: ADC: Reset failed Solution: Self-recovery
		ADC Error: 	Line: 1722046	2018-08-18 15:50:54.897901 Msg: No ADC response from SYNC - START
		ADC Error: 	Line: 1722142	2018-08-18 15:51:16.192274 - STOP
		Reason: ADC: Reset failed Solution: Self-recovery
		ADC Error: 	Line: 1722413	2018-08-18 15:52:14.897303 Msg: No ADC response from SYNC - START
		ADC Error: 	Line: 1722599	2018-08-18 15:52:56.418024 - STOP
		Reason: ADC: Reset failed Solution: Self-recovery
		ADC Error: 	Line: 1722866	2018-08-18 15:53:54.898057 Msg: No ADC response from SYNC - START
		ADC Error: 	Line: 1722964	2018-08-18 15:54:16.596437 - STOP
		Reason: ADC: Reset failed Solution: Self-recovery
		ADC Error: 	Line: 1723328	2018-08-18 15:55:34.898813 Msg: No ADC response from SYNC - START
	Digital Error: 	Line: 1723425	2018-08-18 15:55:59.179236 Msg: No response.. - START
	Digital Error: 	Line: 1723558	2018-08-18 15:56:30.952793 Amount: 3 - STOP
	Solution: Self-recovery
		ADC Error: 	Line: 1723976	2018-08-18 15:58:15.014617 - STOP
		Reason: ADC: Reset failed Solution: Bootloader is now in control, Microcontroller MCUCSR register contents: Brown-Out Reset
		ADC Error: 	Line: 1724246	2018-08-18 15:59:14.899671 Msg: No ADC response from SYNC - START
		ADC Error: 	Line: 1724431	2018-08-18 15:59:55.015371 - STOP
		Reason: ADC: Reset failed Solution: Self-recovery
		ADC Error: 	Line: 1724706	2018-08-18 16:00:54.900424 Msg: No ADC response from SYNC - START
		ADC Error: 	Line: 1724800	2018-08-18 16:01:15.015774 - STOP
		Reason: ADC: Reset failed Solution: Self-recovery
		ADC Error: 	Line: 1725072	2018-08-18 16:02:14.900823 Msg: No ADC response from SYNC - START
		ADC Error: 	Line: 1725882	2018-08-18 16:05:15.148990 - STOP
		Reason: ADC: Reset failed Solution: Self-recovery
		ADC Error: 	Line: 1726251	2018-08-18 16:06:34.901395 Msg: No ADC response from SYNC - START
		ADC Error: 	Line: 1726339	2018-08-18 16:06:55.016744 - STOP
		Reason: ADC: Reset failed Solution: Self-recovery
		ADC Error: 	Line: 1726707	2018-08-18 16:08:14.902147 Msg: No ADC response from SYNC - START
		ADC Error: 	Line: 1726798	2018-08-18 16:08:35.017501 - STOP
		Reason: ADC: Reset failed Solution: Self-recovery
		ADC Error: 	Line: 1727162	2018-08-18 16:09:54.901904 Msg: No ADC response from SYNC - START
		ADC Error: 	Line: 1727164	2018-08-18 16:09:55.016906 - STOP
		Reason: ADC: Reset failed Solution: Self-recovery
		ADC Error: 	Line: 1727537	2018-08-18 16:11:14.902304 Msg: No ADC response from SYNC - START
		ADC Error: 	Line: 1727539	2018-08-18 16:11:15.017312 - STOP
		Reason: ADC: Reset failed Solution: Self-recovery
		ADC Error: 	Line: 1727825	2018-08-18 16:12:14.902368 Msg: No ADC response from SYNC - START
		ADC Error: 	Line: 1727827	2018-08-18 16:12:15.017371 - STOP
		Reason: ADC: Reset failed Solution: Self-recovery
		ADC Error: 	Line: 1728281	2018-08-18 16:13:54.903127 Msg: No ADC response from SYNC - START
		ADC Error: 	Line: 1728733	2018-08-18 16:15:35.018898 - STOP
		Reason: ADC: Reset failed Solution: Self-recovery
		ADC Error: 	Line: 1729003	2018-08-18 16:16:34.903954 Msg: No ADC response from SYNC - START
		ADC Error: 	Line: 1729097	2018-08-18 16:16:55.019311 - STOP
		Reason: ADC: Reset failed Solution: Self-recovery
		ADC Error: 	Line: 1729368	2018-08-18 16:17:54.904364 Msg: No ADC response from SYNC - START
		ADC Error: 	Line: 1729462	2018-08-18 16:18:15.021720 - STOP
		Reason: ADC: Reset failed Solution: Self-recovery
		ADC Error: 	Line: 1730012	2018-08-18 16:20:14.904835 Msg: No ADC response from SYNC - START
		ADC Error: 	Line: 1730194	2018-08-18 16:20:55.020542 - STOP
		Reason: ADC: Reset failed Solution: Self-recovery
		ADC Error: 	Line: 1730933	2018-08-18 16:23:34.905362 Msg: No ADC response from SYNC - START
		ADC Error: 	Line: 1731210	2018-08-18 16:24:35.021418 - STOP
		Reason: ADC: Reset failed Solution: Self-recovery
		ADC Error: 	Line: 1731485	2018-08-18 16:25:34.906477 Msg: No ADC response from SYNC - START
		ADC Error: 	Line: 1731487	2018-08-18 16:25:35.021475 - STOP
		Reason: ADC: Reset failed Solution: Self-recovery
		ADC Error: 	Line: 1731956	2018-08-18 16:27:14.906240 Msg: No ADC response from SYNC - START
		ADC Error: 	Line: 1731958	2018-08-18 16:27:15.022239 - STOP
		Reason: ADC: Reset failed Solution: Self-recovery
		ADC Error: 	Line: 1732319	2018-08-18 16:28:34.906645 Msg: No ADC response from SYNC - START
		ADC Error: 	Line: 1732413	2018-08-18 16:28:55.023002 - STOP
		Reason: ADC: Reset failed Solution: Self-recovery
		ADC Error: 	Line: 1732684	2018-08-18 16:29:54.907057 Msg: No ADC response from SYNC - START
		ADC Error: 	Line: 1732774	2018-08-18 16:30:15.022416 - STOP
		Reason: ADC: Reset failed Solution: Self-recovery
		ADC Error: 	Line: 1733503	2018-08-18 16:32:54.908230 Msg: No ADC response from SYNC - START
		ADC Error: 	Line: 1733866	2018-08-18 16:34:15.023640 - STOP
		Reason: ADC: Reset failed Solution: Self-recovery
		ADC Error: 	Line: 1734244	2018-08-18 16:35:34.909055 Msg: No ADC response from SYNC - START
		ADC Error: 	Line: 1734334	2018-08-18 16:35:55.024412 - STOP
		Reason: ADC: Reset failed Solution: Self-recovery
		ADC Error: 	Line: 1734606	2018-08-18 16:36:54.909463 Msg: No ADC response from SYNC - START
		ADC Error: 	Line: 1735061	2018-08-18 16:38:35.152231 - STOP
		Reason: ADC: Reset failed Solution: Self-recovery
		ADC Error: 	Line: 1735515	2018-08-18 16:40:14.909996 Msg: No ADC response from SYNC - START
		ADC Error: 	Line: 1735697	2018-08-18 16:40:55.025698 - STOP
		Reason: ADC: Reset failed Solution: Self-recovery
		ADC Error: 	Line: 1736245	2018-08-18 16:42:54.910817 Msg: No ADC response from SYNC - START
		ADC Error: 	Line: 1736247	2018-08-18 16:42:55.025817 - STOP
		Reason: ADC: Reset failed Solution: Self-recovery
		ADC Error: 	Line: 1736536	2018-08-18 16:43:54.910875 Msg: No ADC response from SYNC - START
		ADC Error: 	Line: 1736627	2018-08-18 16:44:15.026227 - STOP
		Reason: ADC: Reset failed Solution: Self-recovery
		ADC Error: 	Line: 1736898	2018-08-18 16:45:14.911283 Msg: No ADC response from SYNC - START
		ADC Error: 	Line: 1736990	2018-08-18 16:45:35.040640 - STOP
		Reason: ADC: Reset failed Solution: Self-recovery
		ADC Error: 	Line: 1737268	2018-08-18 16:46:34.911709 Msg: No ADC response from SYNC - START
		ADC Error: 	Line: 1737630	2018-08-18 16:47:55.355141 - STOP
		Reason: ADC: Reset failed Solution: Self-recovery
		ADC Error: 	Line: 1737990	2018-08-18 16:49:14.912572 Msg: No ADC response from SYNC - START
		ADC Error: 	Line: 1738357	2018-08-18 16:50:35.710005 - STOP
		Reason: ADC: Reset failed Solution: Self-recovery
		ADC Error: 	Line: 1738717	2018-08-18 16:51:54.913428 Msg: No ADC response from SYNC - START
		ADC Error: 	Line: 1738993	2018-08-18 16:52:56.023520 - STOP
		Reason: ADC: Reset failed Solution: Self-recovery
		ADC Error: 	Line: 1739907	2018-08-18 16:56:14.914093 Msg: No ADC response from SYNC - START
		ADC Error: 	Line: 1740277	2018-08-18 16:57:36.654554 - STOP
		Reason: ADC: Reset failed Solution: Self-recovery
		ADC Error: 	Line: 1740550	2018-08-18 16:58:34.914609 Msg: No ADC response from SYNC - START
		ADC Error: 	Line: 1740648	2018-08-18 16:58:56.831995 - STOP
		Reason: ADC: Reset failed Solution: Self-recovery
		ADC Error: 	Line: 1741006	2018-08-18 17:00:14.915393 Msg: No ADC response from SYNC - START
		ADC Error: 	Line: 1741013	2018-08-18 17:00:17.012432 - STOP
		Reason: ADC: Reset failed Solution: Self-recovery
		ADC Error: 	Line: 1741366	2018-08-18 17:01:34.915808 Msg: No ADC response from SYNC - START
		ADC Error: 	Line: 1741650	2018-08-18 17:02:35.287869 - STOP
		Reason: ADC: Reset failed Solution: Self-recovery
		ADC Error: 	Line: 1741817	2018-08-18 17:03:34.915934 Msg: No ADC response from SYNC - START
		ADC Error: 	Line: 1741880	2018-08-18 17:03:55.188294 - STOP
		Reason: ADC: Reset failed Solution: Self-recovery
		ADC Error: 	Line: 1742048	2018-08-18 17:04:54.916359 Msg: No ADC response from SYNC - START
		ADC Error: 	Line: 1742105	2018-08-18 17:05:15.031714 - STOP
		Reason: ADC: Reset failed Solution: Self-recovery
		ADC Error: 	Line: 1742279	2018-08-18 17:06:14.916781 Msg: No ADC response from SYNC - START
		ADC Error: 	Line: 1742683	2018-08-18 17:08:35.032268 - STOP
		Reason: ADC: Reset failed Solution: Self-recovery
		ADC Error: 	Line: 1742917	2018-08-18 17:09:54.917687 Msg: No ADC response from SYNC - START
		ADC Error: 	Line: 1743322	2018-08-18 17:12:15.033171 - STOP
		Reason: ADC: Reset failed Solution: Self-recovery
		ADC Error: 	Line: 1743915	2018-08-18 17:14:34.918642 Msg: No ADC response from SYNC - START
		ADC Error: 	Line: 1744373	2018-08-18 17:16:15.034406 - STOP
		Reason: ADC: Reset failed Solution: Self-recovery
		ADC Error: 	Line: 1744757	2018-08-18 17:17:34.919819 Msg: No ADC response from SYNC - START
		ADC Error: 	Line: 1745570	2018-08-18 17:20:35.034993 - STOP
		Reason: ADC: Reset failed Solution: Self-recovery
		ADC Error: 	Line: 1746022	2018-08-18 17:22:14.920752 Msg: No ADC response from SYNC - START
		ADC Error: 	Line: 1746208	2018-08-18 17:22:55.036458 - STOP
		Reason: ADC: Reset failed Solution: Self-recovery
		ADC Error: 	Line: 1746475	2018-08-18 17:23:54.921518 Msg: No ADC response from SYNC - START
		ADC Error: 	Line: 1746750	2018-08-18 17:24:55.037571 - STOP
		Reason: ADC: Reset failed Solution: Self-recovery
		ADC Error: 	Line: 1747021	2018-08-18 17:25:54.921625 Msg: No ADC response from SYNC - START
		ADC Error: 	Line: 1747023	2018-08-18 17:25:55.039628 - STOP
		Reason: ADC: Reset failed Solution: Self-recovery
		ADC Error: 	Line: 1747385	2018-08-18 17:27:14.922034 Msg: No ADC response from SYNC - START
		ADC Error: 	Line: 1747569	2018-08-18 17:27:55.038740 - STOP
		Reason: ADC: Reset failed Solution: Self-recovery
		ADC Error: 	Line: 1748304	2018-08-18 17:30:34.922539 Msg: No ADC response from SYNC - START
		ADC Error: 	Line: 1748306	2018-08-18 17:30:35.037534 - STOP
		Reason: ADC: Reset failed Solution: Self-recovery
		ADC Error: 	Line: 1748577	2018-08-18 17:31:34.922587 Msg: No ADC response from SYNC - START
		ADC Error: 	Line: 1748759	2018-08-18 17:32:15.038287 - STOP
		Reason: ADC: Reset failed Solution: Self-recovery
		ADC Error: 	Line: 1749032	2018-08-18 17:33:14.923333 Msg: No ADC response from SYNC - START
		ADC Error: 	Line: 1749395	2018-08-18 17:34:35.038732 - STOP
		Reason: ADC: Reset failed Solution: Self-recovery
		ADC Error: 	Line: 1750032	2018-08-18 17:36:54.924196 Msg: No ADC response from SYNC - START
		ADC Error: 	Line: 1750628	2018-08-18 17:39:15.039665 - STOP
		Reason: ADC: Reset failed Solution: Bootloader is now in control, Microcontroller MCUCSR register contents: Brown-Out Reset
		ADC Error: 	Line: 1750899	2018-08-18 17:40:14.924720 Msg: No ADC response from SYNC - START
		ADC Error: 	Line: 1750901	2018-08-18 17:40:15.040721 - STOP
		Reason: ADC: Reset failed Solution: Self-recovery
		ADC Error: 	Line: 1751442	2018-08-18 17:42:14.925835 Msg: No ADC response from SYNC - START
		ADC Error: 	Line: 1751444	2018-08-18 17:42:15.106837 - STOP
		Reason: ADC: Reset failed Solution: Self-recovery
		ADC Error: 	Line: 1751822	2018-08-18 17:43:34.926244 Msg: No ADC response from SYNC - START
		ADC Error: 	Line: 1751912	2018-08-18 17:43:55.041598 - STOP
		Reason: ADC: Reset failed Solution: Self-recovery
		ADC Error: 	Line: 1752277	2018-08-18 17:45:14.926007 Msg: No ADC response from SYNC - START
		ADC Error: 	Line: 1752456	2018-08-18 17:45:55.041706 - STOP
		Reason: ADC: Reset failed Solution: Self-recovery
		ADC Error: 	Line: 1752731	2018-08-18 17:46:54.926763 Msg: No ADC response from SYNC - START
		ADC Error: 	Line: 1752733	2018-08-18 17:46:55.165768 - STOP
		Reason: ADC: Reset failed Solution: Self-recovery
		ADC Error: 	Line: 1753006	2018-08-18 17:47:54.926812 Msg: No ADC response from SYNC - START
		ADC Error: 	Line: 1753642	2018-08-18 17:50:15.478283 - STOP
		Reason: ADC: Reset failed Solution: Self-recovery
		ADC Error: 	Line: 1753914	2018-08-18 17:51:14.927336 Msg: No ADC response from SYNC - START
		ADC Error: 	Line: 1754098	2018-08-18 17:51:55.699045 - STOP
		Reason: ADC: Reset failed Solution: Self-recovery
		ADC Error: 	Line: 1754550	2018-08-18 17:53:34.928795 Msg: No ADC response from SYNC - START
		ADC Error: 	Line: 1755008	2018-08-18 17:55:16.143575 - STOP
		Reason: ADC: Reset failed Solution: Self-recovery
		ADC Error: 	Line: 1755460	2018-08-18 17:56:54.929307 Msg: No ADC response from SYNC - START
		ADC Error: 	Line: 1755738	2018-08-18 17:57:56.502390 - STOP
		Reason: ADC: Reset failed Solution: Self-recovery
		ADC Error: 	Line: 1756010	2018-08-18 17:58:54.929431 Msg: No ADC response from SYNC - START
		ADC Error: 	Line: 1756470	2018-08-18 18:00:36.858213 - STOP
		Reason: ADC: Reset failed Solution: Self-recovery
		ADC Error: 	Line: 1756825	2018-08-18 18:01:54.930594 Msg: No ADC response from SYNC - START
		ADC Error: 	Line: 1756923	2018-08-18 18:02:17.073984 - STOP
		Reason: ADC: Reset failed Solution: Self-recovery
		ADC Error: 	Line: 1757177	2018-08-18 18:03:14.931002 Msg: No ADC response from SYNC - START
		ADC Error: 	Line: 1757373	2018-08-18 18:03:55.262706 - STOP
		Reason: ADC: Reset failed Solution: Self-recovery
		ADC Error: 	Line: 1757630	2018-08-18 18:05:14.931117 Msg: No ADC response from SYNC - START
		ADC Error: 	Line: 1757728	2018-08-18 18:05:36.536493 - STOP
		Reason: ADC: Reset failed Solution: Bootloader is now in control, Microcontroller MCUCSR register contents: Watchdog Reset
		ADC Error: 	Line: 1757993	2018-08-18 18:06:34.931520 Msg: No ADC response from SYNC - START
		ADC Error: 	Line: 1758183	2018-08-18 18:07:16.759248 - STOP
		Reason: ADC: Reset failed Solution: Self-recovery
		ADC Error: 	Line: 1758444	2018-08-18 18:08:14.932278 Msg: No ADC response from SYNC - START
		ADC Error: 	Line: 1758450	2018-08-18 18:08:16.883306 - STOP
		Reason: ADC: Reset failed Solution: Self-recovery
		ADC Error: 	Line: 1758717	2018-08-18 18:09:14.932333 Msg: No ADC response from SYNC - START
		ADC Error: 	Line: 1758991	2018-08-18 18:10:15.117385 - STOP
		Reason: ADC: Reset failed Solution: Self-recovery
		ADC Error: 	Line: 1759325	2018-08-18 18:11:34.932795 Msg: No ADC response from SYNC - START
		ADC Error: 	Line: 1759416	2018-08-18 18:11:55.070149 - STOP
		Reason: ADC: Reset failed Solution: Self-recovery
		ADC Error: 	Line: 1759817	2018-08-18 18:14:14.933607 Msg: No ADC response from SYNC - START
		ADC Error: 	Line: 1760102	2018-08-18 18:15:55.049372 - STOP
		Reason: ADC: Reset failed Solution: Self-recovery
		ADC Error: 	Line: 1760389	2018-08-18 18:17:34.934133 Msg: No ADC response from SYNC - START
		ADC Error: 	Line: 1760851	2018-08-18 18:20:15.049940 - STOP
		Reason: ADC: Reset failed Solution: Self-recovery
		ADC Error: 	Line: 1761022	2018-08-18 18:21:14.935001 Msg: No ADC response from SYNC - START
		ADC Error: 	Line: 1761538	2018-08-18 18:23:15.051114 - STOP
		Reason: ADC: Reset failed Solution: Self-recovery
		ADC Error: 	Line: 1762157	2018-08-18 18:25:34.936574 Msg: No ADC response from SYNC - START
		ADC Error: 	Line: 1762335	2018-08-18 18:26:15.051285 - STOP
		Reason: ADC: Reset failed Solution: Self-recovery
		ADC Error: 	Line: 1762608	2018-08-18 18:27:14.937338 Msg: No ADC response from SYNC - START
		ADC Error: 	Line: 1762970	2018-08-18 18:28:35.052745 - STOP
		Reason: ADC: Reset failed Solution: Self-recovery
		ADC Error: 	Line: 1763262	2018-08-18 18:29:34.937803 Msg: No ADC response from SYNC - START
		ADC Error: 	Line: 1763352	2018-08-18 18:29:55.053151 - STOP
		Reason: ADC: Reset failed Solution: Self-recovery
		ADC Error: 	Line: 1763713	2018-08-18 18:31:14.938559 Msg: No ADC response from SYNC - START
		ADC Error: 	Line: 1764260	2018-08-18 18:33:15.053671 - STOP
		Reason: ADC: Reset failed Solution: Self-recovery
		ADC Error: 	Line: 1764527	2018-08-18 18:34:14.938724 Msg: No ADC response from SYNC - START
		ADC Error: 	Line: 1764893	2018-08-18 18:35:35.055135 - STOP
		Reason: ADC: Reset failed Solution: Self-recovery
		ADC Error: 	Line: 1765165	2018-08-18 18:36:34.939188 Msg: No ADC response from SYNC - START
		ADC Error: 	Line: 1765167	2018-08-18 18:36:35.055192 - STOP
		Reason: ADC: Reset failed Solution: Self-recovery
		ADC Error: 	Line: 1765434	2018-08-18 18:37:34.940246 Msg: No ADC response from SYNC - START
		ADC Error: 	Line: 1765528	2018-08-18 18:37:55.055598 - STOP
		Reason: ADC: Reset failed Solution: Self-recovery
		ADC Error: 	Line: 1766564	2018-08-18 18:41:34.940468 Msg: No ADC response from SYNC - START
		ADC Error: 	Line: 1766747	2018-08-18 18:42:15.056168 - STOP
		Reason: ADC: Reset failed Solution: Self-recovery
		ADC Error: 	Line: 1767200	2018-08-18 18:43:54.941932 Msg: No ADC response from SYNC - START
		ADC Error: 	Line: 1767382	2018-08-18 18:44:35.056639 - STOP
		Reason: ADC: Reset failed Solution: Self-recovery
		ADC Error: 	Line: 1767654	2018-08-18 18:45:34.941695 Msg: No ADC response from SYNC - START
		ADC Error: 	Line: 1767928	2018-08-18 18:46:35.057751 - STOP
		Reason: ADC: Reset failed Solution: Self-recovery
		ADC Error: 	Line: 1768196	2018-08-18 18:47:34.941808 Msg: No ADC response from SYNC - START
		ADC Error: 	Line: 1768471	2018-08-18 18:48:35.057864 - STOP
		Reason: ADC: Reset failed Solution: Self-recovery
		ADC Error: 	Line: 1768745	2018-08-18 18:49:34.942921 Msg: No ADC response from SYNC - START
		ADC Error: 	Line: 1768839	2018-08-18 18:49:55.058272 - STOP
		Reason: ADC: Reset failed Solution: Self-recovery
		ADC Error: 	Line: 1769106	2018-08-18 18:50:54.943331 Msg: No ADC response from SYNC - START
		ADC Error: 	Line: 1770515	2018-08-18 18:56:15.058963 - STOP
		Reason: ADC: Reset failed Solution: Bootloader is now in control, Microcontroller MCUCSR register contents: Brown-Out Reset
		ADC Error: 	Line: 1770974	2018-08-18 18:57:54.944721 Msg: No ADC response from SYNC - START
		ADC Error: 	Line: 1771791	2018-08-18 19:00:55.060893 - STOP
		Reason: ADC: Reset failed Solution: Self-recovery
		ADC Error: 	Line: 1772065	2018-08-18 19:01:54.945953 Msg: No ADC response from SYNC - START
		ADC Error: 	Line: 1772429	2018-08-18 19:03:15.061359 - STOP
		Reason: ADC: Reset failed Solution: Self-recovery
		ADC Error: 	Line: 1772704	2018-08-18 19:04:14.946407 Msg: No ADC response from SYNC - START
		ADC Error: 	Line: 1772706	2018-08-18 19:04:15.061415 - STOP
		Reason: ADC: Reset failed Solution: Self-recovery
		ADC Error: 	Line: 1772975	2018-08-18 19:05:14.946460 Msg: No ADC response from SYNC - START
		ADC Error: 	Line: 1773610	2018-08-18 19:07:35.062937 - STOP
		Reason: ADC: Reset failed Solution: Self-recovery
		ADC Error: 	Line: 1773881	2018-08-18 19:08:34.947993 Msg: No ADC response from SYNC - START
		ADC Error: 	Line: 1774155	2018-08-18 19:09:35.063050 - STOP
		Reason: ADC: Reset failed Solution: Self-recovery
		ADC Error: 	Line: 1774426	2018-08-18 19:10:34.948109 Msg: No ADC response from SYNC - START
		ADC Error: 	Line: 1774879	2018-08-18 19:12:15.226870 - STOP
		Reason: ADC: Reset failed Solution: Self-recovery
		ADC Error: 	Line: 1775514	2018-08-18 19:14:34.949333 Msg: No ADC response from SYNC - START
		ADC Error: 	Line: 1775610	2018-08-18 19:14:55.585694 - STOP
		Reason: ADC: Reset failed Solution: Self-recovery
		ADC Error: 	Line: 1775876	2018-08-18 19:15:54.949738 Msg: No ADC response from SYNC - START
		ADC Error: 	Line: 1777241	2018-08-18 19:20:56.380040 - STOP
		Reason: ADC: Reset failed Solution: External Reset - analog
		ADC Error: 	Line: 1777517	2018-08-18 19:21:54.951077 Msg: No ADC response from SYNC - START
		ADC Error: 	Line: 1777795	2018-08-18 19:22:56.647157 - STOP
		Reason: ADC: Reset failed Solution: External Reset - analog
		ADC Error: 	Line: 1778065	2018-08-18 19:23:54.951196 Msg: No ADC response from SYNC - START
		ADC Error: 	Line: 1780040	2018-08-18 19:32:55.068701 - STOP
		Reason: ADC: Reset failed Solution: Self-recovery
		ADC Error: 	Line: 1780214	2018-08-18 19:33:54.953755 Msg: No ADC response from SYNC - START
		ADC Error: 	Line: 1781599	2018-08-18 19:40:35.070801 - STOP
		Reason: ADC: Reset failed Solution: Life Guarding, CAN-controller has been reinitialized
		ADC Error: 	Line: 1781968	2018-08-18 19:41:54.955212 Msg: No ADC response from SYNC - START
		ADC Error: 	Line: 1781970	2018-08-18 19:41:55.071210 - STOP
		Reason: ADC: Reset failed Solution: Self-recovery
		ADC Error: 	Line: 1782334	2018-08-18 19:43:14.955622 Msg: No ADC response from SYNC - START
		ADC Error: 	Line: 1782336	2018-08-18 19:43:15.071613 - STOP
		Reason: ADC: Reset failed Solution: Self-recovery
		ADC Error: 	Line: 1782604	2018-08-18 19:44:14.956676 Msg: No ADC response from SYNC - START
		ADC Error: 	Line: 1782606	2018-08-18 19:44:15.071676 - STOP
		Reason: ADC: Reset failed Solution: Self-recovery
		ADC Error: 	Line: 1783258	2018-08-18 19:46:34.957139 Msg: No ADC response from SYNC - START
		ADC Error: 	Line: 1783892	2018-08-18 19:48:55.072607 - STOP
		Reason: ADC: Reset failed Solution: Self-recovery
		ADC Error: 	Line: 1784174	2018-08-18 19:49:54.957665 Msg: No ADC response from SYNC - START
		ADC Error: 	Line: 1784176	2018-08-18 19:49:55.072664 - STOP
		Reason: ADC: Reset failed Solution: Self-recovery
		ADC Error: 	Line: 1784458	2018-08-18 19:50:54.957721 Msg: No ADC response from SYNC - START
		ADC Error: 	Line: 1784728	2018-08-18 19:51:55.073777 - STOP
		Reason: ADC: Reset failed Solution: Self-recovery
		ADC Error: 	Line: 1785003	2018-08-18 19:52:54.958833 Msg: No ADC response from SYNC - START
		ADC Error: 	Line: 1785631	2018-08-18 19:55:15.074300 - STOP
		Reason: ADC: Reset failed Solution: Self-recovery
		ADC Error: 	Line: 1785903	2018-08-18 19:56:14.959357 Msg: No ADC response from SYNC - START
		ADC Error: 	Line: 1787078	2018-08-18 20:00:35.075938 - STOP
		Reason: ADC: Reset failed Solution: Self-recovery
		ADC Error: 	Line: 1787532	2018-08-18 20:02:14.960701 Msg: No ADC response from SYNC - START
		ADC Error: 	Line: 1787979	2018-08-18 20:03:55.076462 - STOP
		Reason: ADC: Reset failed Solution: Self-recovery
		ADC Error: 	Line: 1788433	2018-08-18 20:05:34.961225 Msg: No ADC response from SYNC - START
		ADC Error: 	Line: 1788616	2018-08-18 20:06:15.077928 - STOP
		Reason: ADC: Reset failed Solution: Self-recovery
		ADC Error: 	Line: 1788890	2018-08-18 20:07:14.961987 Msg: No ADC response from SYNC - START
		ADC Error: 	Line: 1789252	2018-08-18 20:08:35.077396 - STOP
		Reason: ADC: Reset failed Solution: Self-recovery
		ADC Error: 	Line: 1789525	2018-08-18 20:09:34.962454 Msg: No ADC response from SYNC - START
		ADC Error: 	Line: 1790794	2018-08-18 20:14:15.079387 - STOP
		Reason: ADC: Reset failed Solution: Self-recovery
		ADC Error: 	Line: 1791169	2018-08-18 20:15:34.963800 Msg: No ADC response from SYNC - START
		ADC Error: 	Line: 1791439	2018-08-18 20:16:35.079853 - STOP
		Reason: ADC: Reset failed Solution: Self-recovery
		ADC Error: 	Line: 1791711	2018-08-18 20:17:34.964912 Msg: No ADC response from SYNC - START
		ADC Error: 	Line: 1792077	2018-08-18 20:18:55.081312 - STOP
		Reason: ADC: Reset failed Solution: Self-recovery
		ADC Error: 	Line: 1792349	2018-08-18 20:19:54.965367 Msg: No ADC response from SYNC - START
		ADC Error: 	Line: 1792803	2018-08-18 20:21:35.081144 - STOP
		Reason: ADC: Reset failed Solution: Self-recovery
		ADC Error: 	Line: 1793074	2018-08-18 20:22:34.966196 Msg: No ADC response from SYNC - START
		ADC Error: 	Line: 1793164	2018-08-18 20:22:55.081545 - STOP
		Reason: ADC: Reset failed Solution: Self-recovery
		ADC Error: 	Line: 1793616	2018-08-18 20:24:34.966310 Msg: No ADC response from SYNC - START
		ADC Error: 	Line: 1793798	2018-08-18 20:25:15.082015 - STOP
		Reason: ADC: Reset failed Solution: Self-recovery
		ADC Error: 	Line: 1794178	2018-08-18 20:26:34.966428 Msg: No ADC response from SYNC - START
		ADC Error: 	Line: 1796712	2018-08-18 20:35:56.298303 - STOP
		Reason: ADC: Reset failed Solution: Self-recovery
		ADC Error: 	Line: 1796996	2018-08-18 20:36:54.969338 Msg: No ADC response from SYNC - START
		ADC Error: 	Line: 1797000	2018-08-18 20:36:56.440364 - STOP
		Reason: ADC: Reset failed Solution: Self-recovery
		ADC Error: 	Line: 1797541	2018-08-18 20:38:54.969461 Msg: No ADC response from SYNC - START
		ADC Error: 	Line: 1797730	2018-08-18 20:39:36.785187 - STOP
		Reason: ADC: Reset failed Solution: Self-recovery
		ADC Error: 	Line: 1797993	2018-08-18 20:40:34.970219 Msg: No ADC response from SYNC - START
		ADC Error: 	Line: 1798091	2018-08-18 20:40:56.965607 - STOP
		Reason: ADC: Reset failed Solution: Self-recovery
		ADC Error: 	Line: 1798358	2018-08-18 20:41:54.970628 Msg: No ADC response from SYNC - START
		ADC Error: 	Line: 1798448	2018-08-18 20:42:15.105984 - STOP
		Reason: ADC: Reset failed Solution: Self-recovery
		ADC Error: 	Line: 1798871	2018-08-18 20:43:54.970745 Msg: No ADC response from SYNC - START
		ADC Error: 	Line: 1798960	2018-08-18 20:44:15.101096 - STOP
		Reason: ADC: Reset failed Solution: Self-recovery
		ADC Error: 	Line: 1799135	2018-08-18 20:45:14.971154 Msg: No ADC response from SYNC - START
		ADC Error: 	Line: 1799252	2018-08-18 20:45:55.317856 - STOP
		Reason: ADC: Reset failed Solution: Self-recovery
		ADC Error: 	Line: 1799543	2018-08-18 20:47:34.972613 Msg: No ADC response from SYNC - START
		ADC Error: 	Line: 1799659	2018-08-18 20:48:15.088324 - STOP
		Reason: ADC: Reset failed Solution: Self-recovery
		ADC Error: 	Line: 1799946	2018-08-18 20:49:54.973080 Msg: No ADC response from SYNC - START
		ADC Error: 	Line: 1801103	2018-08-18 20:55:35.090069 - STOP
		Reason: ADC: Reset failed Solution: Self-recovery
		ADC Error: 	Line: 1801379	2018-08-18 20:56:34.974128 Msg: No ADC response from SYNC - START
		ADC Error: 	Line: 1803012	2018-08-18 21:02:35.091466 - STOP
		Reason: ADC: Reset failed Solution: Self-recovery
		ADC Error: 	Line: 1803557	2018-08-18 21:04:34.976584 Msg: No ADC response from SYNC - START
		ADC Error: 	Line: 1803831	2018-08-18 21:05:35.091635 - STOP
		Reason: ADC: Reset failed Solution: Self-recovery
		ADC Error: 	Line: 1804195	2018-08-18 21:06:54.977049 Msg: No ADC response from SYNC - START
		ADC Error: 	Line: 1805195	2018-08-18 21:10:35.092926 - STOP
		Reason: ADC: Reset failed Solution: Self-recovery
		ADC Error: 	Line: 1805560	2018-08-18 21:11:54.978333 Msg: No ADC response from SYNC - START
		ADC Error: 	Line: 1807097	2018-08-18 21:17:35.094324 - STOP
		Reason: ADC: Reset failed Solution: Self-recovery
		ADC Error: 	Line: 1807370	2018-08-18 21:18:34.979383 Msg: No ADC response from SYNC - START
		ADC Error: 	Line: 1807825	2018-08-18 21:20:15.160142 - STOP
		Reason: ADC: Reset failed Solution: Self-recovery
		ADC Error: 	Line: 1808552	2018-08-18 21:22:54.980957 Msg: No ADC response from SYNC - START
		ADC Error: 	Line: 1809909	2018-08-18 21:27:55.097242 - STOP
		Reason: ADC: Reset failed Solution: Self-recovery
Nodeguard Error: 	Line: 1810047	2018-08-18 21:28:26.501790 - START
Nodeguard Error: 	Line: 1810048	2018-08-18 21:28:26.504788 - STOP
Solution: Self-recovery
		ADC Error: 	Line: 1810181	2018-08-18 21:28:54.982302 Msg: No ADC response from SYNC - START
		ADC Error: 	Line: 1811177	2018-08-18 21:32:35.098172 - STOP
		Reason: ADC: Reset failed Solution: Self-recovery
		ADC Error: 	Line: 1811450	2018-08-18 21:33:34.983231 Msg: No ADC response from SYNC - START
		ADC Error: 	Line: 1811888	2018-08-18 21:35:35.098342 - STOP
		Reason: ADC: Reset failed Solution: Bootloader is now in control, Microcontroller MCUCSR register contents: Brown-Out Reset
		ADC Error: 	Line: 1812248	2018-08-18 21:36:54.983747 Msg: No ADC response from SYNC - START
		ADC Error: 	Line: 1813968	2018-08-18 21:43:15.100441 - STOP
		Reason: ADC: Reset failed Solution: Self-recovery
		ADC Error: 	Line: 1814240	2018-08-18 21:44:14.985494 Msg: No ADC response from SYNC - START
		ADC Error: 	Line: 1815876	2018-08-18 21:50:15.102828 - STOP
		Reason: ADC: Reset failed Solution: Self-recovery
		ADC Error: 	Line: 1816237	2018-08-18 21:51:34.987245 Msg: No ADC response from SYNC - START
		ADC Error: 	Line: 1816511	2018-08-18 21:52:35.103298 - STOP
		Reason: ADC: Reset failed Solution: Self-recovery
		ADC Error: 	Line: 1816783	2018-08-18 21:53:34.988351 Msg: No ADC response from SYNC - START
		ADC Error: 	Line: 1817325	2018-08-18 21:55:35.103459 - STOP
		Reason: ADC: Reset failed Solution: Self-recovery
		ADC Error: 	Line: 1817596	2018-08-18 21:56:34.988522 Msg: No ADC response from SYNC - START
		ADC Error: 	Line: 1817871	2018-08-18 21:57:35.104574 - STOP
		Reason: ADC: Reset failed Solution: Self-recovery
		ADC Error: 	Line: 1818155	2018-08-18 21:58:34.989632 Msg: No ADC response from SYNC - START
		ADC Error: 	Line: 1819604	2018-08-18 22:03:55.106258 - STOP
		Reason: ADC: Reset failed Solution: Self-recovery
		ADC Error: 	Line: 1819876	2018-08-18 22:04:54.991323 Msg: No ADC response from SYNC - START
		ADC Error: 	Line: 1819970	2018-08-18 22:05:15.106678 - STOP
		Reason: ADC: Reset failed Solution: Self-recovery
		ADC Error: 	Line: 1820429	2018-08-18 22:06:54.991425 Msg: No ADC response from SYNC - START
		ADC Error: 	Line: 1821335	2018-08-18 22:10:15.106954 - STOP
		Reason: ADC: Reset failed Solution: Self-recovery
		ADC Error: 	Line: 1821703	2018-08-18 22:11:34.992364 Msg: No ADC response from SYNC - START
		ADC Error: 	Line: 1821797	2018-08-18 22:11:55.107714 - STOP
		Reason: ADC: Reset failed Solution: Self-recovery
		ADC Error: 	Line: 1822068	2018-08-18 22:12:54.992766 Msg: No ADC response from SYNC - START
		ADC Error: 	Line: 1823065	2018-08-18 22:16:35.111639 - STOP
		Reason: ADC: Reset failed Solution: Self-recovery
		ADC Error: 	Line: 1823340	2018-08-18 22:17:34.993698 Msg: No ADC response from SYNC - START
		ADC Error: 	Line: 1823974	2018-08-18 22:19:55.110158 - STOP
		Reason: ADC: Reset failed Solution: Self-recovery
		ADC Error: 	Line: 1824438	2018-08-18 22:21:34.994915 Msg: No ADC response from SYNC - START
		ADC Error: 	Line: 1824798	2018-08-18 22:22:55.110326 - STOP
		Reason: ADC: Reset failed Solution: Self-recovery
		ADC Error: 	Line: 1825064	2018-08-18 22:23:54.995378 Msg: No ADC response from SYNC - START
		ADC Error: 	Line: 1827300	2018-08-18 22:32:16.243198 - STOP
		Reason: ADC: Reset failed Solution: Self-recovery
		ADC Error: 	Line: 1827746	2018-08-18 22:33:54.997938 Msg: No ADC response from SYNC - START
		ADC Error: 	Line: 1829625	2018-08-18 22:40:55.359327 - STOP
		Reason: ADC: Reset failed Solution: Self-recovery
		ADC Error: 	Line: 1829790	2018-08-18 22:41:55.000378 Msg: No ADC response from SYNC - START
		ADC Error: 	Line: 1830129	2018-08-18 22:43:55.116476 - STOP
		Reason: ADC: Reset failed Solution: Self-recovery
		ADC Error: 	Line: 1830298	2018-08-18 22:44:55.000539 Msg: No ADC response from SYNC - START
		ADC Error: 	Line: 1830469	2018-08-18 22:45:55.116587 - STOP
		Reason: ADC: Reset failed Solution: Self-recovery
		ADC Error: 	Line: 1830756	2018-08-18 22:47:35.001338 Msg: No ADC response from SYNC - START
		ADC Error: 	Line: 1830758	2018-08-18 22:47:35.117338 - STOP
		Reason: ADC: Reset failed Solution: Self-recovery
		ADC Error: 	Line: 1830926	2018-08-18 22:48:35.002387 Msg: No ADC response from SYNC - START
		ADC Error: 	Line: 1832037	2018-08-18 22:53:35.118646 - STOP
		Reason: ADC: Reset failed Solution: Self-recovery
		ADC Error: 	Line: 1832411	2018-08-18 22:54:55.003046 Msg: No ADC response from SYNC - START
		ADC Error: 	Line: 1833126	2018-08-18 22:57:35.118852 - STOP
		Reason: ADC: Reset failed Solution: Self-recovery
		ADC Error: 	Line: 1833395	2018-08-18 22:58:35.003908 Msg: No ADC response from SYNC - START
		ADC Error: 	Line: 1833579	2018-08-18 22:59:15.120612 - STOP
		Reason: ADC: Reset failed Solution: Self-recovery
		ADC Error: 	Line: 1833846	2018-08-18 23:00:15.004668 Msg: No ADC response from SYNC - START
		ADC Error: 	Line: 1833848	2018-08-18 23:00:15.119667 - STOP
		Reason: ADC: Reset failed Solution: Self-recovery
		ADC Error: 	Line: 1834204	2018-08-18 23:01:35.005072 Msg: No ADC response from SYNC - START
		ADC Error: 	Line: 1834474	2018-08-18 23:02:35.120129 - STOP
		Reason: ADC: Reset failed Solution: Self-recovery
		ADC Error: 	Line: 1834741	2018-08-18 23:03:35.005187 Msg: No ADC response from SYNC - START
Nodeguard Error: 	Line: 1835190	2018-08-18 23:05:16.558969 - START
Nodeguard Error: 	Line: 1835191	2018-08-18 23:05:16.560962 - STOP
Solution: Self-recovery
		ADC Error: 	Line: 1835909	2018-08-18 23:07:55.121759 - STOP
		Reason: ADC: Reset failed Solution: Self-recovery
		ADC Error: 	Line: 1836190	2018-08-18 23:08:55.006816 Msg: No ADC response from SYNC - START
		ADC Error: 	Line: 1837620	2018-08-18 23:14:15.123444 - STOP
		Reason: ADC: Reset failed Solution: Self-recovery
		ADC Error: 	Line: 1837986	2018-08-18 23:15:35.008854 Msg: No ADC response from SYNC - START
		ADC Error: 	Line: 1838076	2018-08-18 23:15:55.124201 - STOP
		Reason: ADC: Reset failed Solution: Self-recovery
		ADC Error: 	Line: 1838343	2018-08-18 23:16:55.009249 Msg: No ADC response from SYNC - START
		ADC Error: 	Line: 1839149	2018-08-18 23:19:55.124400 - STOP
		Reason: ADC: Reset failed Solution: Self-recovery
		ADC Error: 	Line: 1839600	2018-08-18 23:21:35.010153 Msg: No ADC response from SYNC - START
		ADC Error: 	Line: 1842371	2018-08-18 23:31:55.129009 - STOP
		Reason: ADC: Reset failed Solution: Self-recovery
		ADC Error: 	Line: 1842638	2018-08-18 23:32:55.013062 Msg: No ADC response from SYNC - START
		ADC Error: 	Line: 1842728	2018-08-18 23:33:15.128404 - STOP
		Reason: ADC: Reset failed Solution: Self-recovery
		ADC Error: 	Line: 1842995	2018-08-18 23:34:15.013438 Msg: No ADC response from SYNC - START
		ADC Error: 	Line: 1842997	2018-08-18 23:34:15.128438 - STOP
		Reason: ADC: Reset failed Solution: Self-recovery
		ADC Error: 	Line: 1843268	2018-08-18 23:35:15.013478 Msg: No ADC response from SYNC - START
		ADC Error: 	Line: 1843359	2018-08-18 23:35:35.128818 - STOP
		Reason: ADC: Reset failed Solution: Self-recovery
		ADC Error: 	Line: 1843665	2018-08-18 23:36:35.013848 Msg: No ADC response from SYNC - START
		ADC Error: 	Line: 1845458	2018-08-18 23:43:15.625863 - STOP
		Reason: ADC: Reset failed Solution: Self-recovery
		ADC Error: 	Line: 1845723	2018-08-18 23:44:15.015900 Msg: No ADC response from SYNC - START
		ADC Error: 	Line: 1846083	2018-08-18 23:45:35.933324 - STOP
		Reason: ADC: Reset failed Solution: Self-recovery
		ADC Error: 	Line: 1846374	2018-08-18 23:46:35.016357 Msg: No ADC response from SYNC - START
		ADC Error: 	Line: 1846916	2018-08-18 23:48:36.332482 - STOP
		Reason: ADC: Reset failed Solution: Self-recovery
		ADC Error: 	Line: 1847181	2018-08-18 23:49:35.016514 Msg: No ADC response from SYNC - START
		ADC Error: 	Line: 1847273	2018-08-18 23:49:56.511894 - STOP
		Reason: ADC: Reset failed Solution: Self-recovery
		ADC Error: 	Line: 1847716	2018-08-18 23:51:35.017615 Msg: No ADC response from SYNC - START
		ADC Error: 	Line: 1847814	2018-08-18 23:51:56.775993 - STOP
		Reason: ADC: Reset failed Solution: Self-recovery
		ADC Error: 	Line: 1848078	2018-08-18 23:52:55.018024 Msg: No ADC response from SYNC - START
		ADC Error: 	Line: 1848172	2018-08-18 23:53:16.954406 - STOP
		Reason: ADC: Reset failed Solution: Self-recovery
		ADC Error: 	Line: 1848447	2018-08-18 23:54:15.018423 Msg: No ADC response from SYNC - START
		ADC Error: 	Line: 1849652	2018-08-18 23:59:55.134379 - STOP
		Reason: ADC: Reset failed Solution: Self-recovery
		ADC Error: 	Line: 1849887	2018-08-19 00:01:15.019786 Msg: No ADC response from SYNC - START
		ADC Error: 	Line: 1849889	2018-08-19 00:01:15.134787 - STOP
		Reason: ADC: Reset failed Solution: Self-recovery
		ADC Error: 	Line: 1850353	2018-08-19 00:03:55.020590 Msg: No ADC response from SYNC - START
		ADC Error: 	Line: 1850469	2018-08-19 00:04:35.135294 - STOP
		Reason: ADC: Reset failed Solution: Self-recovery
		ADC Error: 	Line: 1850889	2018-08-19 00:06:55.020751 Msg: No ADC response from SYNC - START
		ADC Error: 	Line: 1851437	2018-08-19 00:08:55.136845 - STOP
		Reason: ADC: Reset failed Solution: Self-recovery
		ADC Error: 	Line: 1851704	2018-08-19 00:09:55.021905 Msg: No ADC response from SYNC - START
		ADC Error: 	Line: 1852345	2018-08-19 00:12:15.137352 - STOP
		Reason: ADC: Reset failed Solution: Self-recovery
		ADC Error: 	Line: 1852613	2018-08-19 00:13:15.022411 Msg: No ADC response from SYNC - START
		ADC Error: 	Line: 1852980	2018-08-19 00:14:35.137811 - STOP
		Reason: ADC: Reset failed Solution: Self-recovery
		ADC Error: 	Line: 1853251	2018-08-19 00:15:35.022861 Msg: No ADC response from SYNC - START
		ADC Error: 	Line: 1855153	2018-08-19 00:22:35.140222 - STOP
		Reason: ADC: Reset failed Solution: Self-recovery
		ADC Error: 	Line: 1855700	2018-08-19 00:24:35.025321 Msg: No ADC response from SYNC - START
		ADC Error: 	Line: 1855702	2018-08-19 00:24:35.140324 - STOP
		Reason: ADC: Reset failed Solution: Self-recovery
		ADC Error: 	Line: 1855975	2018-08-19 00:25:35.025376 Msg: No ADC response from SYNC - START
		ADC Error: 	Line: 1856697	2018-08-19 00:28:15.141174 - STOP
		Reason: ADC: Reset failed Solution: Self-recovery
		ADC Error: 	Line: 1856965	2018-08-19 00:29:15.026232 Msg: No ADC response from SYNC - START
		ADC Error: 	Line: 1857327	2018-08-19 00:30:35.142631 - STOP
		Reason: ADC: Reset failed Solution: Self-recovery
		ADC Error: 	Line: 1857595	2018-08-19 00:31:35.026685 Msg: No ADC response from SYNC - START
		ADC Error: 	Line: 1857685	2018-08-19 00:31:55.142041 - STOP
		Reason: ADC: Reset failed Solution: Self-recovery
		ADC Error: 	Line: 1857953	2018-08-19 00:32:55.027090 Msg: No ADC response from SYNC - START
		ADC Error: 	Line: 1857955	2018-08-19 00:32:55.142093 - STOP
		Reason: ADC: Reset failed Solution: Self-recovery
		ADC Error: 	Line: 1858617	2018-08-19 00:35:15.027546 Msg: No ADC response from SYNC - START
		ADC Error: 	Line: 1858977	2018-08-19 00:36:35.142950 - STOP
		Reason: ADC: Reset failed Solution: Self-recovery
		ADC Error: 	Line: 1859248	2018-08-19 00:37:35.027999 Msg: No ADC response from SYNC - START
		ADC Error: 	Line: 1859699	2018-08-19 00:39:15.143754 - STOP
		Reason: ADC: Reset failed Solution: Self-recovery
		ADC Error: 	Line: 1859968	2018-08-19 00:40:15.028809 Msg: No ADC response from SYNC - START
		ADC Error: 	Line: 1861223	2018-08-19 00:44:55.145712 - STOP
		Reason: ADC: Reset failed Solution: Self-recovery
		ADC Error: 	Line: 1861579	2018-08-19 00:46:15.031116 Msg: No ADC response from SYNC - START
		ADC Error: 	Line: 1861849	2018-08-19 00:47:15.146164 - STOP
		Reason: ADC: Reset failed Solution: Self-recovery
		ADC Error: 	Line: 1862116	2018-08-19 00:48:15.031213 Msg: No ADC response from SYNC - START
		ADC Error: 	Line: 1862206	2018-08-19 00:48:35.146566 - STOP
		Reason: ADC: Reset failed Solution: Self-recovery
		ADC Error: 	Line: 1862474	2018-08-19 00:49:35.031613 Msg: No ADC response from SYNC - START
		ADC Error: 	Line: 1864443	2018-08-19 00:56:55.417312 - STOP
		Reason: ADC: Reset failed Solution: Self-recovery
		ADC Error: 	Line: 1864747	2018-08-19 00:57:55.033366 Msg: No ADC response from SYNC - START
		ADC Error: 	Line: 1865469	2018-08-19 01:00:35.839169 - STOP
		Reason: ADC: Reset failed Solution: Self-recovery
		ADC Error: 	Line: 1866095	2018-08-19 01:02:55.034617 Msg: No ADC response from SYNC - START
		ADC Error: 	Line: 1866813	2018-08-19 01:05:36.500437 - STOP
		Reason: ADC: Reset failed Solution: Self-recovery
		ADC Error: 	Line: 1867101	2018-08-19 01:06:35.035468 Msg: No ADC response from SYNC - START
		ADC Error: 	Line: 1867106	2018-08-19 01:06:36.635496 - STOP
		Reason: ADC: Reset failed Solution: Self-recovery
		ADC Error: 	Line: 1867371	2018-08-19 01:07:35.035519 Msg: No ADC response from SYNC - START
		ADC Error: 	Line: 1868625	2018-08-19 01:12:15.352423 - STOP
		Reason: ADC: Reset failed Solution: Self-recovery
		ADC Error: 	Line: 1868823	2018-08-19 01:13:15.037471 Msg: No ADC response from SYNC - START
		ADC Error: 	Line: 1868882	2018-08-19 01:13:35.259825 - STOP
		Reason: ADC: Reset failed Solution: Self-recovery
		ADC Error: 	Line: 1869048	2018-08-19 01:14:35.037880 Msg: No ADC response from SYNC - START
		ADC Error: 	Line: 1869164	2018-08-19 01:15:15.152582 - STOP
		Reason: ADC: Reset failed Solution: Self-recovery
		ADC Error: 	Line: 1869335	2018-08-19 01:16:15.037632 Msg: No ADC response from SYNC - START
		ADC Error: 	Line: 1870237	2018-08-19 01:21:35.154237 - STOP
		Reason: ADC: Reset failed Solution: Self-recovery
Nodeguard Error: 	Line: 1870345	2018-08-19 01:22:06.637788 - START
Nodeguard Error: 	Line: 1870347	2018-08-19 01:22:08.573822 - STOP
Solution: Self-recovery
		ADC Error: 	Line: 1870409	2018-08-19 01:22:35.039288 Msg: No ADC response from SYNC - START
		ADC Error: 	Line: 1870499	2018-08-19 01:22:55.154639 - STOP
		Reason: ADC: Reset failed Solution: Self-recovery
		ADC Error: 	Line: 1870734	2018-08-19 01:23:55.039682 Msg: No ADC response from SYNC - START
		ADC Error: 	Line: 1871811	2018-08-19 01:27:55.155892 - STOP
		Reason: ADC: Reset failed Solution: Self-recovery
		ADC Error: 	Line: 1872078	2018-08-19 01:28:55.040942 Msg: No ADC response from SYNC - START
		ADC Error: 	Line: 1872169	2018-08-19 01:29:15.156292 - STOP
		Reason: ADC: Reset failed Solution: Self-recovery
		ADC Error: 	Line: 1872618	2018-08-19 01:30:55.042041 Msg: No ADC response from SYNC - START
		ADC Error: 	Line: 1873685	2018-08-19 01:34:55.163244 - STOP
		Reason: ADC: Reset failed Solution: Self-recovery
		ADC Error: 	Line: 1873954	2018-08-19 01:35:55.042292 Msg: No ADC response from SYNC - START
		ADC Error: 	Line: 1874316	2018-08-19 01:37:15.158695 - STOP
		Reason: ADC: Reset failed Solution: Self-recovery
		ADC Error: 	Line: 1874583	2018-08-19 01:38:15.043742 Msg: No ADC response from SYNC - START
		ADC Error: 	Line: 1875654	2018-08-19 01:42:15.159945 - STOP
		Reason: ADC: Reset failed Solution: Self-recovery
		ADC Error: 	Line: 1875924	2018-08-19 01:43:15.043989 Msg: No ADC response from SYNC - START
		ADC Error: 	Line: 1876195	2018-08-19 01:44:15.160043 - STOP
		Reason: ADC: Reset failed Solution: Self-recovery
		ADC Error: 	Line: 1876476	2018-08-19 01:45:15.045096 Msg: No ADC response from SYNC - START
		ADC Error: 	Line: 1877106	2018-08-19 01:47:35.160542 - STOP
		Reason: ADC: Reset failed Solution: Self-recovery
		ADC Error: 	Line: 1877369	2018-08-19 01:48:35.045590 Msg: No ADC response from SYNC - START
		ADC Error: 	Line: 1877640	2018-08-19 01:49:35.161638 - STOP
		Reason: ADC: Reset failed Solution: Self-recovery
		ADC Error: 	Line: 1877911	2018-08-19 01:50:35.046692 Msg: No ADC response from SYNC - START
		ADC Error: 	Line: 1878629	2018-08-19 01:53:15.162476 - STOP
		Reason: ADC: Reset failed Solution: Self-recovery
		ADC Error: 	Line: 1878896	2018-08-19 01:54:15.047524 Msg: No ADC response from SYNC - START
		ADC Error: 	Line: 1879704	2018-08-19 01:57:15.163657 - STOP
		Reason: ADC: Reset failed Solution: Self-recovery
		ADC Error: 	Line: 1879971	2018-08-19 01:58:15.048693 Msg: No ADC response from SYNC - START
		ADC Error: 	Line: 1880061	2018-08-19 01:58:35.164050 - STOP
		Reason: ADC: Reset failed Solution: Self-recovery
		ADC Error: 	Line: 1880328	2018-08-19 01:59:35.048094 Msg: No ADC response from SYNC - START
		ADC Error: 	Line: 1880418	2018-08-19 01:59:55.163446 - STOP
		Reason: ADC: Reset failed Solution: Self-recovery
		ADC Error: 	Line: 1880685	2018-08-19 02:00:55.048498 Msg: No ADC response from SYNC - START
		ADC Error: 	Line: 1880779	2018-08-19 02:01:15.163846 - STOP
		Reason: ADC: Reset failed Solution: Self-recovery
		ADC Error: 	Line: 1881223	2018-08-19 02:02:55.049595 Msg: No ADC response from SYNC - START
		ADC Error: 	Line: 1881764	2018-08-19 02:04:55.164695 - STOP
		Reason: ADC: Reset failed Solution: Self-recovery
		ADC Error: 	Line: 1882032	2018-08-19 02:05:55.049739 Msg: No ADC response from SYNC - START
		ADC Error: 	Line: 1882841	2018-08-19 02:08:55.165895 - STOP
		Reason: ADC: Reset failed Solution: Self-recovery
		ADC Error: 	Line: 1883110	2018-08-19 02:09:55.050935 Msg: No ADC response from SYNC - START
		ADC Error: 	Line: 1883200	2018-08-19 02:10:15.166290 - STOP
		Reason: ADC: Reset failed Solution: Self-recovery
		ADC Error: 	Line: 1883649	2018-08-19 02:11:55.052045 Msg: No ADC response from SYNC - START
		ADC Error: 	Line: 1884009	2018-08-19 02:13:15.430442 - STOP
		Reason: ADC: Reset failed Solution: Self-recovery
		ADC Error: 	Line: 1884381	2018-08-19 02:14:55.052194 Msg: No ADC response from SYNC - START
		ADC Error: 	Line: 1884471	2018-08-19 02:15:15.167544 - STOP
		Reason: ADC: Reset failed Solution: Bootloader is now in control, Microcontroller MCUCSR register contents: Brown-Out Reset
		ADC Error: 	Line: 1884738	2018-08-19 02:16:15.052597 Msg: No ADC response from SYNC - START
		ADC Error: 	Line: 1884740	2018-08-19 02:16:15.167593 - STOP
		Reason: ADC: Reset failed Solution: Bootloader is now in control, Microcontroller MCUCSR register contents: Brown-Out Reset
		ADC Error: 	Line: 1885187	2018-08-19 02:17:55.053330 Msg: No ADC response from SYNC - START
		ADC Error: 	Line: 1885634	2018-08-19 02:19:35.169084 - STOP
		Reason: ADC: Reset failed Solution: Self-recovery
		ADC Error: 	Line: 1885902	2018-08-19 02:20:35.054132 Msg: No ADC response from SYNC - START
		ADC Error: 	Line: 1888055	2018-08-19 02:28:35.170506 - STOP
		Reason: ADC: Reset failed Solution: Self-recovery
		ADC Error: 	Line: 1888320	2018-08-19 02:29:35.055547 Msg: No ADC response from SYNC - START
		ADC Error: 	Line: 1888498	2018-08-19 02:30:15.171251 - STOP
		Reason: ADC: Reset failed Solution: Self-recovery
		ADC Error: 	Line: 1888859	2018-08-19 02:31:35.056644 Msg: No ADC response from SYNC - START
		ADC Error: 	Line: 1888861	2018-08-19 02:31:35.171647 - STOP
		Reason: ADC: Reset failed Solution: Self-recovery
		ADC Error: 	Line: 1889128	2018-08-19 02:32:35.056691 Msg: No ADC response from SYNC - START
		ADC Error: 	Line: 1889130	2018-08-19 02:32:35.171694 - STOP
		Reason: ADC: Reset failed Solution: Self-recovery
		ADC Error: 	Line: 1889398	2018-08-19 02:33:35.056741 Msg: No ADC response from SYNC - START
		ADC Error: 	Line: 1889400	2018-08-19 02:33:35.171742 - STOP
		Reason: ADC: Reset failed Solution: Self-recovery
		ADC Error: 	Line: 1889667	2018-08-19 02:34:35.056790 Msg: No ADC response from SYNC - START
		ADC Error: 	Line: 1889671	2018-08-19 02:34:35.240785 - STOP
		Reason: ADC: Reset failed Solution: Self-recovery
		ADC Error: 	Line: 1889937	2018-08-19 02:35:35.057840 Msg: No ADC response from SYNC - START
		ADC Error: 	Line: 1891061	2018-08-19 02:39:56.296400 - STOP
		Reason: ADC: Reset failed Solution: Bootloader is now in control, Microcontroller MCUCSR register contents: Brown-Out Reset
		ADC Error: 	Line: 1891602	2018-08-19 02:41:55.059483 Msg: No ADC response from SYNC - START
		ADC Error: 	Line: 1892592	2018-08-19 02:45:37.052366 - STOP
		Reason: ADC: Reset failed Solution: Self-recovery
		ADC Error: 	Line: 1893046	2018-08-19 02:47:15.060079 Msg: No ADC response from SYNC - START
		ADC Error: 	Line: 1893578	2018-08-19 02:49:35.277526 - STOP
		Reason: ADC: Reset failed Solution: Self-recovery
		ADC Error: 	Line: 1893748	2018-08-19 02:50:35.061570 Msg: No ADC response from SYNC - START
		ADC Error: 	Line: 1894198	2018-08-19 02:53:15.177366 - STOP
		Reason: ADC: Reset failed Solution: Self-recovery
		ADC Error: 	Line: 1894581	2018-08-19 02:55:35.062813 Msg: No ADC response from SYNC - START
		ADC Error: 	Line: 1894698	2018-08-19 02:56:15.177509 - STOP
		Reason: ADC: Reset failed Solution: Bootloader is now in control, Microcontroller MCUCSR register contents: Brown-Out Reset
		ADC Error: 	Line: 1894871	2018-08-19 02:57:15.062554 Msg: No ADC response from SYNC - START
		ADC Error: 	Line: 1895212	2018-08-19 02:59:15.178647 - STOP
		Reason: ADC: Reset failed Solution: Self-recovery
		ADC Error: 	Line: 1895452	2018-08-19 03:00:15.063698 Msg: No ADC response from SYNC - START
		ADC Error: 	Line: 1896615	2018-08-19 03:04:35.180239 - STOP
		Reason: ADC: Reset failed Solution: Self-recovery
		ADC Error: 	Line: 1896884	2018-08-19 03:05:35.065278 Msg: No ADC response from SYNC - START
		ADC Error: 	Line: 1896974	2018-08-19 03:05:55.180633 - STOP
		Reason: ADC: Reset failed Solution: Self-recovery
		ADC Error: 	Line: 1897241	2018-08-19 03:06:55.065672 Msg: No ADC response from SYNC - START
		ADC Error: 	Line: 1898048	2018-08-19 03:09:55.180821 - STOP
		Reason: ADC: Reset failed Solution: Self-recovery
		ADC Error: 	Line: 1898400	2018-08-19 03:11:15.066217 Msg: No ADC response from SYNC - START
		ADC Error: 	Line: 1898402	2018-08-19 03:11:15.181216 - STOP
		Reason: ADC: Reset failed Solution: Self-recovery
		ADC Error: 	Line: 1898670	2018-08-19 03:12:15.066253 Msg: No ADC response from SYNC - START
		ADC Error: 	Line: 1898940	2018-08-19 03:13:15.248308 - STOP
		Reason: ADC: Reset failed Solution: Self-recovery
		ADC Error: 	Line: 1899323	2018-08-19 03:14:35.067700 Msg: No ADC response from SYNC - START
		ADC Error: 	Line: 1899419	2018-08-19 03:14:55.183043 - STOP
		Reason: ADC: Reset failed Solution: Self-recovery
		ADC Error: 	Line: 1899688	2018-08-19 03:15:55.067095 Msg: No ADC response from SYNC - START
		ADC Error: 	Line: 1899690	2018-08-19 03:15:55.184097 - STOP
		Reason: ADC: Reset failed Solution: Self-recovery
		ADC Error: 	Line: 1900054	2018-08-19 03:17:15.067489 Msg: No ADC response from SYNC - START
		ADC Error: 	Line: 1900327	2018-08-19 03:18:15.184535 - STOP
		Reason: ADC: Reset failed Solution: Self-recovery
		ADC Error: 	Line: 1900594	2018-08-19 03:19:15.068574 Msg: No ADC response from SYNC - START
		ADC Error: 	Line: 1902383	2018-08-19 03:25:55.422534 - STOP
		Reason: ADC: Reset failed Solution: Self-recovery
		ADC Error: 	Line: 1902651	2018-08-19 03:26:55.070579 Msg: No ADC response from SYNC - START
		ADC Error: 	Line: 1904347	2018-08-19 03:32:55.189874 - STOP
		Reason: ADC: Reset failed Solution: Self-recovery
		ADC Error: 	Line: 1905564	2018-08-19 03:34:15.072271 Msg: No ADC response from SYNC - START
		ADC Error: 	Line: 1908866	2018-08-19 03:39:35.188826 - STOP
		Reason: ADC: Reset failed Solution: Self-recovery
		ADC Error: 	Line: 1909133	2018-08-19 03:40:35.073869 Msg: No ADC response from SYNC - START
		ADC Error: 	Line: 1909491	2018-08-19 03:41:55.255264 - STOP
		Reason: ADC: Reset failed Solution: Self-recovery
		ADC Error: 	Line: 1909759	2018-08-19 03:42:55.074308 Msg: No ADC response from SYNC - START
		ADC Error: 	Line: 1910615	2018-08-19 03:46:15.189804 - STOP
		Reason: ADC: Reset failed Solution: Bootloader is now in control, Microcontroller MCUCSR register contents: Brown-Out Reset
		ADC Error: 	Line: 1910880	2018-08-19 03:47:15.074850 Msg: No ADC response from SYNC - START
		ADC Error: 	Line: 1911238	2018-08-19 03:48:35.359241 - STOP
		Reason: ADC: Reset failed Solution: Self-recovery
		ADC Error: 	Line: 1911504	2018-08-19 03:49:35.076284 Msg: No ADC response from SYNC - START
		ADC Error: 	Line: 1912580	2018-08-19 03:53:36.018486 - STOP
		Reason: ADC: Reset failed Solution: Self-recovery
		ADC Error: 	Line: 1912845	2018-08-19 03:54:35.076515 Msg: No ADC response from SYNC - START
		ADC Error: 	Line: 1913118	2018-08-19 03:55:36.284582 - STOP
		Reason: ADC: Reset failed Solution: Self-recovery
		ADC Error: 	Line: 1913386	2018-08-19 03:56:35.077618 Msg: No ADC response from SYNC - START
		ADC Error: 	Line: 1914284	2018-08-19 03:59:56.852129 - STOP
		Reason: ADC: Reset failed Solution: Self-recovery
		ADC Error: 	Line: 1914548	2018-08-19 04:00:55.078151 Msg: No ADC response from SYNC - START
		ADC Error: 	Line: 1914554	2018-08-19 04:00:56.984185 - STOP
		Reason: ADC: Reset failed Solution: Self-recovery
		ADC Error: 	Line: 1914827	2018-08-19 04:01:55.079197 Msg: No ADC response from SYNC - START
		ADC Error: 	Line: 1916277	2018-08-19 04:08:55.195517 - STOP
		Reason: ADC: Reset failed Solution: Self-recovery
		ADC Error: 	Line: 1916447	2018-08-19 04:09:55.080554 Msg: No ADC response from SYNC - START
		ADC Error: 	Line: 1916504	2018-08-19 04:10:15.195904 - STOP
		Reason: ADC: Reset failed Solution: Self-recovery
		ADC Error: 	Line: 1916672	2018-08-19 04:11:15.080957 Msg: No ADC response from SYNC - START
		ADC Error: 	Line: 1918362	2018-08-19 04:18:55.197970 - STOP
		Reason: ADC: Reset failed Solution: Self-recovery
		ADC Error: 	Line: 1918688	2018-08-19 04:20:15.083361 Msg: No ADC response from SYNC - START
		ADC Error: 	Line: 1918690	2018-08-19 04:20:15.198364 - STOP
		Reason: ADC: Reset failed Solution: Bootloader is now in control, Microcontroller MCUCSR register contents: Brown-Out Reset
		ADC Error: 	Line: 1919047	2018-08-19 04:21:35.083755 Msg: No ADC response from SYNC - START
		ADC Error: 	Line: 1919493	2018-08-19 04:23:15.239499 - STOP
		Reason: ADC: Reset failed Solution: Self-recovery
		ADC Error: 	Line: 1919759	2018-08-19 04:24:15.084547 Msg: No ADC response from SYNC - START
		ADC Error: 	Line: 1921064	2018-08-19 04:29:16.320779 - STOP
		Reason: ADC: Reset failed Solution: Bootloader is now in control, Microcontroller MCUCSR register contents: Brown-Out Reset
		ADC Error: 	Line: 1921329	2018-08-19 04:30:15.085803 Msg: No ADC response from SYNC - START
		ADC Error: 	Line: 1922676	2018-08-19 04:35:35.202380 - STOP
		Reason: ADC: Reset failed Solution: Bootloader is now in control, Microcontroller MCUCSR register contents: Brown-Out Reset
		ADC Error: 	Line: 1922951	2018-08-19 04:36:35.087427 Msg: No ADC response from SYNC - START
		ADC Error: 	Line: 1922953	2018-08-19 04:36:35.202426 - STOP
		Reason: ADC: Reset failed Solution: Bootloader is now in control, Microcontroller MCUCSR register contents: Brown-Out Reset
		ADC Error: 	Line: 1923221	2018-08-19 04:37:35.087472 Msg: No ADC response from SYNC - START
		ADC Error: 	Line: 1923937	2018-08-19 04:40:15.203260 - STOP
		Reason: ADC: Reset failed Solution: Self-recovery
		ADC Error: 	Line: 1924298	2018-08-19 04:41:35.088654 Msg: No ADC response from SYNC - START
		ADC Error: 	Line: 1924566	2018-08-19 04:42:35.203699 - STOP
		Reason: ADC: Reset failed Solution: Self-recovery
		ADC Error: 	Line: 1924833	2018-08-19 04:43:35.088744 Msg: No ADC response from SYNC - START
		ADC Error: 	Line: 1925736	2018-08-19 04:46:55.205231 - STOP
		Reason: ADC: Reset failed Solution: Self-recovery
		ADC Error: 	Line: 1926004	2018-08-19 04:47:55.090271 Msg: No ADC response from SYNC - START
		ADC Error: 	Line: 1927257	2018-08-19 04:52:35.206156 - STOP
		Reason: ADC: Reset failed Solution: Self-recovery
		ADC Error: 	Line: 1927530	2018-08-19 04:53:35.091199 Msg: No ADC response from SYNC - START
		ADC Error: 	Line: 1927890	2018-08-19 04:54:55.337589 - STOP
		Reason: ADC: Reset failed Solution: Self-recovery
		ADC Error: 	Line: 1928088	2018-08-19 04:55:55.091635 Msg: No ADC response from SYNC - START
		ADC Error: 	Line: 1929258	2018-08-19 05:00:35.209512 - STOP
		Reason: ADC: Reset failed Solution: Bootloader is now in control, Microcontroller MCUCSR register contents: Brown-Out Reset
		ADC Error: 	Line: 1929552	2018-08-19 05:01:35.093554 Msg: No ADC response from SYNC - START
		ADC Error: 	Line: 1930194	2018-08-19 05:03:55.210990 - STOP
		Reason: ADC: Reset failed Solution: Bootloader is now in control, Microcontroller MCUCSR register contents: Brown-Out Reset
		ADC Error: 	Line: 1930728	2018-08-19 05:05:55.094075 Msg: No ADC response from SYNC - START
		ADC Error: 	Line: 1930730	2018-08-19 05:05:55.210074 - STOP
		Reason: ADC: Reset failed Solution: Bootloader is now in control, Microcontroller MCUCSR register contents: Brown-Out Reset
		ADC Error: 	Line: 1930917	2018-08-19 05:06:55.094118 Msg: No ADC response from SYNC - START
		ADC Error: 	Line: 1930919	2018-08-19 05:06:55.210116 - STOP
		Reason: ADC: Reset failed Solution: Bootloader is now in control, Microcontroller MCUCSR register contents: Brown-Out Reset
		ADC Error: 	Line: 1931186	2018-08-19 05:07:55.095158 Msg: No ADC response from SYNC - START
		ADC Error: 	Line: 1935210	2018-08-19 05:12:35.237034 - STOP
		Reason: ADC: Reset failed Solution: Bootloader is now in control, Microcontroller MCUCSR register contents: Brown-Out Reset
Nodeguard Error: 	Line: 1935552	2018-08-19 05:13:26.776925 - START
	Digital Error: 	Line: 1935557	2018-08-19 05:13:54.226403 Msg: No response.. - START
		ADC Error: 	Line: 1935558	2018-08-19 05:13:55.096423 Msg: No ADC response from SYNC - START
		ADC Error: 	Line: 1998060	2018-08-19 05:13:15.095729 - STOP
		Reason: ADC: Reset failed Solution: Bootloader is now in control, Microcontroller MCUCSR register contents: Brown-Out Reset
		ADC Error: 	Line: 1998062	2018-08-19 05:13:55.096418 Msg: No ADC response from SYNC - START
		ADC Error: 	Line: 2026839	2018-08-19 05:13:15.095732 - STOP
		Reason: Unknown Solution: Bootloader is now in control, Microcontroller MCUCSR register contents: Brown-Out Reset
		ADC Error: 	Line: 2026841	2018-08-19 05:13:55.096421 Msg: No ADC response from SYNC - START
