		ADC Error: 	Line: 267614	2018-08-03 03:18:26.012090 Msg: No ADC response from SYNC - START
		ADC Error: 	Line: 276604	2018-08-03 06:16:56.183068 - STOP
		Reason: Unknown Solution: Bootloader is now in control, Microcontroller MCUCSR register contents: Watchdog Reset
	Digital Error: 	Line: 583920	2018-08-03 18:48:01.810836 Msg: Multiple response.. - START
	Digital Error: 	Line: 583925	2018-08-03 18:48:01.915835 Amount: 2 - STOP
	Solution: Self-recovery
	Digital Error: 	Line: 634268	2018-08-03 20:35:29.956080 Msg: No response.. - START
	Digital Error: 	Line: 635443	2018-08-03 20:37:36.722287 Amount: 3 - STOP
	Solution: Self-recovery
Nodeguard Error: 	Line: 1238524	2018-08-04 15:49:11.238131 - START
	Digital Error: 	Line: 1238546	2018-08-04 15:50:31.057582 Msg: No response.. - START
		ADC Error: 	Line: 1240095	2018-08-04 17:24:05.589035 Msg: No ADC response from SYNC - START
		ADC Error: 	Line: 1240097	2018-08-04 17:24:05.730042 - STOP
		Reason: Unknown Solution: External Reset - digital
Nodeguard Error: 	Line: 1240167	2018-08-04 17:24:11.312149 - STOP
Solution: External Reset - digital
	Digital Error: 	Line: 1240956	2018-08-04 17:25:35.691679 Amount: 96 - STOP
	Solution: External Reset - digital
Nodeguard Error: 	Line: 1702656	2018-08-05 07:27:01.894360 - START
		ADC Error: 	Line: 1702662	2018-08-05 07:27:30.112869 Msg: No ADC response from SYNC - START
	Digital Error: 	Line: 1702713	2018-08-05 07:30:37.805219 Msg: No response.. - START
		ADC Error: 	Line: 1703473	2018-08-05 08:15:00.972849 - STOP
		Reason: ADC: Conversion timeout Solution: External Reset - can, digital
Nodeguard Error: 	Line: 1703487	2018-08-05 08:15:01.922868 - STOP
Solution: External Reset - can, digital
	Digital Error: 	Line: 1703634	2018-08-05 08:15:19.722175 Amount: 30 - STOP
	Solution: External Reset - can, digital
	Digital Error: 	Line: 1705039	2018-08-05 08:18:15.442316 Msg: No response.. - START
	Digital Error: 	Line: 1706457	2018-08-05 08:20:49.377065 Amount: 3 - STOP
	Solution: External Reset - can, analog, digital
Nodeguard Error: 	Line: 1721265	2018-08-05 08:47:21.941549 - START
	Digital Error: 	Line: 1721299	2018-08-05 08:49:24.316735 Msg: No response.. - START
		ADC Error: 	Line: 1721778	2018-08-05 09:18:18.723737 Msg: No ADC response from SYNC - START
		ADC Error: 	Line: 1721780	2018-08-05 09:18:18.864734 - STOP
		Reason: Unknown Solution: External Reset - digital
Nodeguard Error: 	Line: 1721824	2018-08-05 09:18:21.959785 - STOP
Solution: External Reset - digital
	Digital Error: 	Line: 1722764	2018-08-05 09:20:04.233616 Amount: 30 - STOP
	Solution: External Reset - digital
	Digital Error: 	Line: 1906911	2018-08-05 14:53:11.923067 Msg: No response.. - START
	Digital Error: 	Line: 1908177	2018-08-05 14:55:28.139530 Amount: 3 - STOP
	Solution: Self-recovery
	Digital Error: 	Line: 1929855	2018-08-05 15:34:21.951806 Msg: No response.. - START
	Digital Error: 	Line: 1931230	2018-08-05 15:36:48.362457 Amount: 3 - STOP
	Solution: Self-recovery
		ADC Error: 	Line: 1939168	2018-08-05 15:51:30.767545 Msg: No ADC response from SYNC - START
		ADC Error: 	Line: 1940308	2018-08-05 16:05:40.941980 - STOP
		Reason: ADC: Conversion timeout Solution: Bootloader is now in control, Microcontroller MCUCSR register contents: Watchdog Reset
Nodeguard Error: 	Line: 1949691	2018-08-05 16:23:22.202254 - START
Nodeguard Error: 	Line: 1949697	2018-08-05 16:23:25.747306 - STOP
Solution: Self-recovery
Nodeguard Error: 	Line: 1950819	2018-08-05 16:25:52.202966 - START
Nodeguard Error: 	Line: 1950823	2018-08-05 16:26:00.814127 - STOP
Solution: Self-recovery
Nodeguard Error: 	Line: 1952072	2018-08-05 16:28:42.205045 - START
Nodeguard Error: 	Line: 1952078	2018-08-05 16:28:48.890170 - STOP
Solution: Self-recovery
Nodeguard Error: 	Line: 1953277	2018-08-05 16:31:22.205959 - START
Nodeguard Error: 	Line: 1953280	2018-08-05 16:31:30.669102 - STOP
Solution: Self-recovery
Nodeguard Error: 	Line: 1954491	2018-08-05 16:34:12.207032 - START
Nodeguard Error: 	Line: 1954497	2018-08-05 16:34:12.735042 - STOP
Solution: Self-recovery
Nodeguard Error: 	Line: 1955624	2018-08-05 16:36:42.208752 - START
Nodeguard Error: 	Line: 1955630	2018-08-05 16:36:49.768886 - STOP
Solution: Self-recovery
Nodeguard Error: 	Line: 1956672	2018-08-05 16:39:12.210471 - START
Nodeguard Error: 	Line: 1956678	2018-08-05 16:39:13.307491 - STOP
Solution: Self-recovery
Nodeguard Error: 	Line: 1957921	2018-08-05 16:41:52.212372 - START
Nodeguard Error: 	Line: 1957925	2018-08-05 16:42:01.303544 - STOP
Solution: Self-recovery
Nodeguard Error: 	Line: 1959129	2018-08-05 16:44:42.213466 - START
Nodeguard Error: 	Line: 1959135	2018-08-05 16:44:42.960469 - STOP
Solution: Self-recovery
Nodeguard Error: 	Line: 1960339	2018-08-05 16:47:22.216359 - START
Nodeguard Error: 	Line: 1960344	2018-08-05 16:47:24.732400 - STOP
Solution: Self-recovery
Nodeguard Error: 	Line: 1961738	2018-08-05 16:50:22.217620 - START
Nodeguard Error: 	Line: 1961740	2018-08-05 16:50:24.728665 - STOP
Solution: Self-recovery
	Digital Error: 	Line: 1963009	2018-08-05 16:52:58.100458 Msg: No response.. - START
Nodeguard Error: 	Line: 1963012	2018-08-05 16:53:02.219527 - START
	Digital Error: 	Line: 1963014	2018-08-05 16:53:06.782615 Amount: 1 - STOP
	Solution: Self-recovery
Nodeguard Error: 	Line: 1963017	2018-08-05 16:53:06.800607 - STOP
Solution: Self-recovery
	Digital Error: 	Line: 1963019	2018-08-05 16:53:06.813607 Msg: Multiple response.. - START
	Digital Error: 	Line: 1964131	2018-08-05 16:55:21.231057 Amount: 2 - STOP
	Solution: Self-recovery
Nodeguard Error: 	Line: 1964221	2018-08-05 16:55:42.221436 - START
Nodeguard Error: 	Line: 1964227	2018-08-05 16:55:49.356561 - STOP
Solution: Self-recovery
Nodeguard Error: 	Line: 1965558	2018-08-05 16:58:42.222711 - START
Nodeguard Error: 	Line: 1965564	2018-08-05 16:58:48.862829 - STOP
Solution: Self-recovery
Nodeguard Error: 	Line: 1966766	2018-08-05 17:01:22.224609 - START
Nodeguard Error: 	Line: 1966769	2018-08-05 17:01:30.684761 - STOP
Solution: Self-recovery
Nodeguard Error: 	Line: 1967977	2018-08-05 17:04:12.226698 - START
Nodeguard Error: 	Line: 1967983	2018-08-05 17:04:12.812715 - STOP
Solution: Self-recovery
Nodeguard Error: 	Line: 1969107	2018-08-05 17:06:42.228421 - START
Nodeguard Error: 	Line: 1969113	2018-08-05 17:06:49.294551 - STOP
Solution: Self-recovery
	Digital Error: 	Line: 1970157	2018-08-05 17:09:11.868134 Msg: No response.. - START
Nodeguard Error: 	Line: 1970158	2018-08-05 17:09:12.230144 - START
	Digital Error: 	Line: 1970164	2018-08-05 17:09:12.876153 Amount: 1 - STOP
	Solution: Self-recovery
Nodeguard Error: 	Line: 1970165	2018-08-05 17:09:12.880154 - STOP
Solution: Self-recovery
	Digital Error: 	Line: 1970167	2018-08-05 17:09:12.893156 Msg: Multiple response.. - START
Nodeguard Error: 	Line: 1971405	2018-08-05 17:11:52.231051 - START
Nodeguard Error: 	Line: 1971409	2018-08-05 17:12:00.617201 - STOP
Solution: Self-recovery
	Digital Error: 	Line: 1971412	2018-08-05 17:12:00.637201 Amount: 3 - STOP
	Solution: Self-recovery
	Digital Error: 	Line: 1971415	2018-08-05 17:12:00.654201 Msg: Multiple response.. - START
Nodeguard Error: 	Line: 1972616	2018-08-05 17:14:42.233137 - START
	Digital Error: 	Line: 1972618	2018-08-05 17:14:42.970149 Amount: 3 - STOP
	Solution: Self-recovery
Nodeguard Error: 	Line: 1972622	2018-08-05 17:14:42.995150 - STOP
Solution: Self-recovery
	Digital Error: 	Line: 1972623	2018-08-05 17:14:43.002150 Msg: Multiple response.. - START
Nodeguard Error: 	Line: 1973827	2018-08-05 17:17:22.235043 - START
	Digital Error: 	Line: 1973829	2018-08-05 17:17:25.105101 Amount: 3 - STOP
	Solution: Self-recovery
Nodeguard Error: 	Line: 1973834	2018-08-05 17:17:25.128102 - STOP
Solution: Self-recovery
	Digital Error: 	Line: 1973835	2018-08-05 17:17:25.136102 Msg: Multiple response.. - START
	Digital Error: 	Line: 1974873	2018-08-05 17:19:31.437390 Amount: 2 - STOP
	Solution: Self-recovery
Nodeguard Error: 	Line: 1974956	2018-08-05 17:19:52.236767 - START
Nodeguard Error: 	Line: 1974960	2018-08-05 17:20:01.432931 - STOP
Solution: Self-recovery
Nodeguard Error: 	Line: 1976207	2018-08-05 17:22:42.237865 - START
Nodeguard Error: 	Line: 1976213	2018-08-05 17:22:48.776975 - STOP
Solution: Self-recovery
Nodeguard Error: 	Line: 1977576	2018-08-05 17:25:42.240122 - START
Nodeguard Error: 	Line: 1977582	2018-08-05 17:25:49.398252 - STOP
Solution: Self-recovery
Nodeguard Error: 	Line: 1978709	2018-08-05 17:28:22.243031 - START
Nodeguard Error: 	Line: 1978711	2018-08-05 17:28:24.826084 - STOP
Solution: Self-recovery
	Digital Error: 	Line: 1980020	2018-08-05 17:31:06.895023 Msg: No response.. - START
Nodeguard Error: 	Line: 1980022	2018-08-05 17:31:12.244126 - START
	Digital Error: 	Line: 1980024	2018-08-05 17:31:13.344139 Amount: 1 - STOP
	Solution: Self-recovery
Nodeguard Error: 	Line: 1980029	2018-08-05 17:31:13.373142 - STOP
Solution: Self-recovery
	Digital Error: 	Line: 1980030	2018-08-05 17:31:13.380140 Msg: Multiple response.. - START
	Digital Error: 	Line: 1981083	2018-08-05 17:33:21.264464 Amount: 2 - STOP
	Solution: Self-recovery
Nodeguard Error: 	Line: 1981244	2018-08-05 17:33:52.247033 - START
Nodeguard Error: 	Line: 1981249	2018-08-05 17:33:54.840076 - STOP
Solution: Self-recovery
Nodeguard Error: 	Line: 1982470	2018-08-05 17:36:32.247940 - START
Nodeguard Error: 	Line: 1982476	2018-08-05 17:36:37.588031 - STOP
Solution: Self-recovery
Nodeguard Error: 	Line: 1983784	2018-08-05 17:39:32.249213 - START
Nodeguard Error: 	Line: 1983787	2018-08-05 17:39:36.750289 - STOP
Solution: Self-recovery
Nodeguard Error: 	Line: 1984975	2018-08-05 17:42:12.251130 - START
Nodeguard Error: 	Line: 1984980	2018-08-05 17:42:18.895234 - STOP
Solution: Self-recovery
Nodeguard Error: 	Line: 1986165	2018-08-05 17:44:52.253038 - START
	Digital Error: 	Line: 1986167	2018-08-05 17:44:56.909113 Msg: No response.. - START
Nodeguard Error: 	Line: 1986170	2018-08-05 17:45:00.993188 - STOP
Solution: Self-recovery
	Digital Error: 	Line: 1986174	2018-08-05 17:45:01.019186 Amount: 1 - STOP
	Solution: Self-recovery
	Digital Error: 	Line: 1986177	2018-08-05 17:45:01.036190 Msg: Multiple response.. - START
	Digital Error: 	Line: 1987351	2018-08-05 17:47:26.817844 Amount: 2 - STOP
	Solution: Self-recovery
Nodeguard Error: 	Line: 1987484	2018-08-05 17:47:52.254318 - START
Nodeguard Error: 	Line: 1987488	2018-08-05 17:48:01.460477 - STOP
Solution: Self-recovery
Nodeguard Error: 	Line: 1989952	2018-08-05 17:53:32.257514 - START
Nodeguard Error: 	Line: 1989955	2018-08-05 17:53:37.280590 - STOP
Solution: Self-recovery
Nodeguard Error: 	Line: 1990981	2018-08-05 17:55:52.259064 - START
Nodeguard Error: 	Line: 1990985	2018-08-05 17:56:01.287211 - STOP
Solution: Self-recovery
Nodeguard Error: 	Line: 1992013	2018-08-05 17:58:22.260791 - START
Nodeguard Error: 	Line: 1992015	2018-08-05 17:58:25.004832 - STOP
Solution: Self-recovery
Nodeguard Error: 	Line: 1993470	2018-08-05 18:01:22.263049 - START
Nodeguard Error: 	Line: 1993474	2018-08-05 18:01:30.825206 - STOP
Solution: Self-recovery
Nodeguard Error: 	Line: 1994663	2018-08-05 18:04:12.265130 - START
Nodeguard Error: 	Line: 1994669	2018-08-05 18:04:13.293147 - STOP
Solution: Self-recovery
Nodeguard Error: 	Line: 1995779	2018-08-05 18:06:42.266855 - START
Nodeguard Error: 	Line: 1995785	2018-08-05 18:06:49.361983 - STOP
Solution: Self-recovery
Nodeguard Error: 	Line: 1996813	2018-08-05 18:09:12.268579 - START
Nodeguard Error: 	Line: 1996819	2018-08-05 18:09:13.548600 - STOP
Solution: Self-recovery
Nodeguard Error: 	Line: 1998042	2018-08-05 18:11:52.270484 - START
Nodeguard Error: 	Line: 1998046	2018-08-05 18:12:00.888646 - STOP
Solution: Self-recovery
Nodeguard Error: 	Line: 1999392	2018-08-05 18:14:52.271751 - START
Nodeguard Error: 	Line: 1999397	2018-08-05 18:15:01.338914 - STOP
Solution: Self-recovery
Nodeguard Error: 	Line: 2000508	2018-08-05 18:17:32.273662 - START
Nodeguard Error: 	Line: 2000511	2018-08-05 18:17:37.283748 - STOP
Solution: Self-recovery
Nodeguard Error: 	Line: 2001859	2018-08-05 18:20:32.275931 - START
Nodeguard Error: 	Line: 2001864	2018-08-05 18:20:37.027019 - STOP
Solution: Self-recovery
Nodeguard Error: 	Line: 2003176	2018-08-05 18:23:32.277199 - START
Nodeguard Error: 	Line: 2003180	2018-08-05 18:23:37.288287 - STOP
Solution: Self-recovery
Nodeguard Error: 	Line: 2004409	2018-08-05 18:26:22.280285 - START
Nodeguard Error: 	Line: 2004411	2018-08-05 18:26:24.872332 - STOP
Solution: Self-recovery
Nodeguard Error: 	Line: 2005662	2018-08-05 18:29:02.282197 - START
Nodeguard Error: 	Line: 2005664	2018-08-05 18:29:07.320279 - STOP
Solution: Self-recovery
Nodeguard Error: 	Line: 2006851	2018-08-05 18:31:42.283102 - START
Nodeguard Error: 	Line: 2006856	2018-08-05 18:31:49.419226 - STOP
Solution: Self-recovery
Nodeguard Error: 	Line: 2007969	2018-08-05 18:34:22.286003 - START
Nodeguard Error: 	Line: 2007971	2018-08-05 18:34:25.864071 - STOP
Solution: Self-recovery
Nodeguard Error: 	Line: 2009060	2018-08-05 18:36:42.287546 - START
Nodeguard Error: 	Line: 2009066	2018-08-05 18:36:49.426674 - STOP
Solution: Self-recovery
Nodeguard Error: 	Line: 2010487	2018-08-05 18:39:52.291004 - START
Nodeguard Error: 	Line: 2010492	2018-08-05 18:39:54.864051 - STOP
Solution: Self-recovery
Nodeguard Error: 	Line: 2011706	2018-08-05 18:42:32.292906 - START
Nodeguard Error: 	Line: 2011711	2018-08-05 18:42:37.294996 - STOP
Solution: Self-recovery
Nodeguard Error: 	Line: 2013021	2018-08-05 18:45:32.294176 - START
Nodeguard Error: 	Line: 2013024	2018-08-05 18:45:37.280270 - STOP
Solution: Self-recovery
	Digital Error: 	Line: 2014386	2018-08-05 18:48:37.367536 Msg: Multiple response.. - START
	Digital Error: 	Line: 2015733	2018-08-05 18:51:22.077535 Amount: 2 - STOP
	Solution: Self-recovery
Nodeguard Error: 	Line: 2015809	2018-08-05 18:51:42.298901 - START
Nodeguard Error: 	Line: 2015814	2018-08-05 18:51:48.880019 - STOP
Solution: Self-recovery
Nodeguard Error: 	Line: 2017329	2018-08-05 18:55:12.300717 - START
Nodeguard Error: 	Line: 2017335	2018-08-05 18:55:13.671732 - STOP
Solution: Self-recovery
Nodeguard Error: 	Line: 2019125	2018-08-05 18:59:02.302895 - START
Nodeguard Error: 	Line: 2019127	2018-08-05 18:59:07.440979 - STOP
Solution: Self-recovery
Nodeguard Error: 	Line: 2020920	2018-08-05 19:02:52.305071 - START
Nodeguard Error: 	Line: 2020924	2018-08-05 19:03:00.958226 - STOP
Solution: Self-recovery
Nodeguard Error: 	Line: 2022558	2018-08-05 19:06:32.307061 - START
Nodeguard Error: 	Line: 2022563	2018-08-05 19:06:36.974142 - STOP
Solution: Self-recovery
Nodeguard Error: 	Line: 2024570	2018-08-05 19:10:52.309787 - START
Nodeguard Error: 	Line: 2024573	2018-08-05 19:10:59.292905 - STOP
Solution: Self-recovery
Nodeguard Error: 	Line: 2026885	2018-08-05 19:15:52.313231 - START
Nodeguard Error: 	Line: 2026890	2018-08-05 19:15:55.484284 - STOP
Solution: Self-recovery
Nodeguard Error: 	Line: 2029059	2018-08-05 19:20:32.315314 - START
Nodeguard Error: 	Line: 2029064	2018-08-05 19:20:35.216370 - STOP
Solution: Self-recovery
Nodeguard Error: 	Line: 2031371	2018-08-05 19:25:22.318580 - START
	Digital Error: 	Line: 2031374	2018-08-05 19:25:30.858735 Msg: No response.. - START
Nodeguard Error: 	Line: 2031376	2018-08-05 19:25:31.262738 - STOP
Solution: Self-recovery
	Digital Error: 	Line: 2031380	2018-08-05 19:25:31.287737 Amount: 1 - STOP
	Solution: Self-recovery
	Digital Error: 	Line: 2031384	2018-08-05 19:25:31.310743 Msg: Multiple response.. - START
	Digital Error: 	Line: 2033083	2018-08-05 19:28:57.318480 Amount: 2 - STOP
	Solution: Self-recovery
Nodeguard Error: 	Line: 2033615	2018-08-05 19:30:12.320838 - START
Nodeguard Error: 	Line: 2033621	2018-08-05 19:30:19.501965 - STOP
Solution: Self-recovery
Nodeguard Error: 	Line: 2035782	2018-08-05 19:34:52.323916 - START
Nodeguard Error: 	Line: 2035785	2018-08-05 19:34:58.898039 - STOP
Solution: Self-recovery
Nodeguard Error: 	Line: 2038705	2018-08-05 19:41:02.327623 - START
Nodeguard Error: 	Line: 2038707	2018-08-05 19:41:06.698702 - STOP
Solution: Self-recovery
Nodeguard Error: 	Line: 2043118	2018-08-05 19:50:32.332962 - START
Nodeguard Error: 	Line: 2043123	2018-08-05 19:50:34.300995 - STOP
Solution: Self-recovery
Nodeguard Error: 	Line: 2047667	2018-08-05 20:00:02.338297 - START
Nodeguard Error: 	Line: 2047670	2018-08-05 20:00:10.296439 - STOP
Solution: Self-recovery
Nodeguard Error: 	Line: 2049907	2018-08-05 20:04:52.341555 - START
Nodeguard Error: 	Line: 2049910	2018-08-05 20:04:58.268660 - STOP
Solution: Self-recovery
Nodeguard Error: 	Line: 2052152	2018-08-05 20:09:42.344808 - START
Nodeguard Error: 	Line: 2052156	2018-08-05 20:09:46.881892 - STOP
Solution: Self-recovery
Nodeguard Error: 	Line: 2054467	2018-08-05 20:14:42.347247 - START
Nodeguard Error: 	Line: 2054473	2018-08-05 20:14:43.047265 - STOP
Solution: Self-recovery
Nodeguard Error: 	Line: 2056265	2018-08-05 20:18:32.350419 - START
Nodeguard Error: 	Line: 2056270	2018-08-05 20:18:37.313505 - STOP
Solution: Self-recovery
	Digital Error: 	Line: 2057738	2018-08-05 20:21:52.016043 Msg: No response.. - START
Nodeguard Error: 	Line: 2057739	2018-08-05 20:21:52.352045 - START
	Digital Error: 	Line: 2057741	2018-08-05 20:21:54.932095 Amount: 1 - STOP
	Solution: Self-recovery
Nodeguard Error: 	Line: 2057745	2018-08-05 20:21:54.955088 - STOP
Solution: Self-recovery
	Digital Error: 	Line: 2057747	2018-08-05 20:21:54.968088 Msg: Multiple response.. - START
	Digital Error: 	Line: 2059405	2018-08-05 20:25:09.766625 Amount: 2 - STOP
	Solution: Self-recovery
Nodeguard Error: 	Line: 2059598	2018-08-05 20:25:42.354218 - START
Nodeguard Error: 	Line: 2059603	2018-08-05 20:25:49.014333 - STOP
Solution: Self-recovery
Nodeguard Error: 	Line: 2061069	2018-08-05 20:29:02.355843 - START
Nodeguard Error: 	Line: 2061071	2018-08-05 20:29:07.269937 - STOP
Solution: Self-recovery
Nodeguard Error: 	Line: 2062861	2018-08-05 20:32:52.358020 - START
Nodeguard Error: 	Line: 2062865	2018-08-05 20:33:00.959166 - STOP
Solution: Self-recovery
Nodeguard Error: 	Line: 2064335	2018-08-05 20:36:12.366637 - START
Nodeguard Error: 	Line: 2064341	2018-08-05 20:36:18.813753 - STOP
Solution: Self-recovery
		ADC Error: 	Line: 2064815	2018-08-05 20:37:50.401398 Msg: No ADC response from SYNC - START
		ADC Error: 	Line: 2065550	2018-08-05 21:00:22.652872 - STOP
		Reason: Unknown Solution: Bootloader is now in control, Microcontroller MCUCSR register contents: Watchdog Reset
Nodeguard Error: 	Line: 2070336	2018-08-05 21:09:02.390307 - START
Nodeguard Error: 	Line: 2070337	2018-08-05 21:09:02.393310 - STOP
Solution: Self-recovery
Nodeguard Error: 	Line: 2083164	2018-08-05 21:32:22.406589 - START
Nodeguard Error: 	Line: 2083165	2018-08-05 21:32:22.409582 - STOP
Solution: Self-recovery
Nodeguard Error: 	Line: 2083486	2018-08-05 21:33:12.407495 - START
Nodeguard Error: 	Line: 2083487	2018-08-05 21:33:12.410494 - STOP
Solution: Self-recovery
Nodeguard Error: 	Line: 2083656	2018-08-05 21:33:42.415033 - START
Nodeguard Error: 	Line: 2083657	2018-08-05 21:33:42.418034 - STOP
Solution: Self-recovery
	Digital Error: 	Line: 2084510	2018-08-05 21:35:45.625259 Msg: No response.. - START
	Digital Error: 	Line: 2084511	2018-08-05 21:35:45.629258 Amount: 1 - STOP
	Solution: Self-recovery
		ADC Error: 	Line: 2155721	2018-08-05 23:53:36.530729 Msg: No ADC response from SYNC - START
	Digital Error: 	Line: 2155883	2018-08-05 23:58:36.062132 Msg: No response.. - START
Nodeguard Error: 	Line: 2155920	2018-08-05 23:59:12.675797 - START
Nodeguard Error: 	Line: 2156004	2018-08-06 00:00:32.680234 - STOP
Solution: Self-recovery
		ADC Error: 	Line: 2156026	2018-08-06 00:00:56.876668 - STOP
		Reason: Unknown Solution: Bootloader is now in control, Microcontroller MCUCSR register contents: Watchdog Reset
	Digital Error: 	Line: 2156705	2018-08-06 00:02:09.645957 Amount: 3 - STOP
	Solution: Bootloader is now in control, Microcontroller MCUCSR register contents: Watchdog Reset
Nodeguard Error: 	Line: 2183317	2018-08-06 00:51:52.814628 - START
Nodeguard Error: 	Line: 2184173	2018-08-06 00:55:32.736576 - STOP
Solution: Self-recovery
Nodeguard Error: 	Line: 2259666	2018-08-06 03:19:22.929236 - START
Nodeguard Error: 	Line: 2259829	2018-08-06 03:20:12.932123 - STOP
Solution: Self-recovery
Nodeguard Error: 	Line: 2273628	2018-08-06 03:45:12.995246 - START
Nodeguard Error: 	Line: 2273629	2018-08-06 03:45:12.997243 - STOP
Solution: Self-recovery
Nodeguard Error: 	Line: 2318313	2018-08-06 05:05:53.053231 - START
Nodeguard Error: 	Line: 2318406	2018-08-06 05:06:03.055406 - STOP
Solution: Self-recovery
Nodeguard Error: 	Line: 2318894	2018-08-06 05:07:13.053658 - START
Nodeguard Error: 	Line: 2318895	2018-08-06 05:07:13.056655 - STOP
Solution: Self-recovery
	Digital Error: 	Line: 2381308	2018-08-06 07:23:45.239268 Msg: No response.. - START
	Digital Error: 	Line: 2385254	2018-08-06 08:15:08.620178 Amount: 7 - STOP
	Solution: Self-recovery
		ADC Error: 	Line: 2454738	2018-08-06 10:29:10.148460 Msg: No ADC response from SYNC - START
		ADC Error: 	Line: 2490178	2018-08-06 17:50:08.340094 - STOP
		Reason: ADC: Conversion timeout Solution: Self-recovery
		ADC Error: 	Line: 3831215	2018-08-06 10:16:48.398334 Msg: No ADC response from SYNC - START
		ADC Error: 	Line: 3954332	2018-08-06 10:16:10.853686 - STOP
		Reason: Unknown Solution: External Reset - can, analog, digital
		ADC Error: 	Line: 3954345	2018-08-06 10:16:42.397228 Msg: No ADC response from SYNC - START
		ADC Error: 	Line: 4050983	2018-08-08 10:33:04.824900 - STOP
		Reason: Unknown Solution: Self-recovery
	Digital Error: 	Line: 4145009	2018-08-08 16:16:11.125138 Msg: No response.. - START
	Digital Error: 	Line: 4145165	2018-08-08 16:16:47.489807 Amount: 3 - STOP
	Solution: Self-recovery
	Digital Error: 	Line: 4507019	2018-08-09 15:33:08.151943 Msg: No response.. - START
	Digital Error: 	Line: 4507276	2018-08-09 15:34:13.817102 Amount: 3 - STOP
	Solution: Self-recovery
Nodeguard Error: 	Line: 4533547	2018-08-09 17:16:35.812498 - START
Nodeguard Error: 	Line: 4533548	2018-08-09 17:16:35.814500 - STOP
Solution: Self-recovery
	Digital Error: 	Line: 4533799	2018-08-09 17:17:12.840149 Msg: incorrect response - START
	Digital Error: 	Line: 4534082	2018-08-09 17:18:16.520255 Amount: 2 - STOP
	Solution: Life Guarding, CAN-controller has been reinitialized
Nodeguard Error: 	Line: 4534515	2018-08-09 17:19:35.813651 - START
Nodeguard Error: 	Line: 4534628	2018-08-09 17:19:55.814000 - STOP
Solution: Life Guarding, CAN-controller has been reinitialized
Nodeguard Error: 	Line: 4536012	2018-08-09 17:23:55.816204 - START
Nodeguard Error: 	Line: 4536013	2018-08-09 17:23:55.819198 - STOP
Solution: Self-recovery
Nodeguard Error: 	Line: 4537481	2018-08-09 17:27:55.818402 - START
Nodeguard Error: 	Line: 4537482	2018-08-09 17:27:55.821386 - STOP
Solution: Self-recovery
Nodeguard Error: 	Line: 4537703	2018-08-09 17:28:35.819100 - START
Nodeguard Error: 	Line: 4537704	2018-08-09 17:28:35.822090 - STOP
Solution: Self-recovery
Nodeguard Error: 	Line: 4537823	2018-08-09 17:28:55.819442 - START
Nodeguard Error: 	Line: 4537824	2018-08-09 17:28:55.822447 - STOP
Solution: Self-recovery
Nodeguard Error: 	Line: 4537938	2018-08-09 17:29:15.819793 - START
Nodeguard Error: 	Line: 4537939	2018-08-09 17:29:15.821794 - STOP
Solution: Self-recovery
Nodeguard Error: 	Line: 4539620	2018-08-09 17:34:15.822037 - START
Nodeguard Error: 	Line: 4539621	2018-08-09 17:34:15.825033 - STOP
Solution: Life Guarding, CAN-controller has been reinitialized
Nodeguard Error: 	Line: 4539734	2018-08-09 17:34:35.822383 - START
Nodeguard Error: 	Line: 4539735	2018-08-09 17:34:35.825383 - STOP
Solution: Life Guarding, CAN-controller has been reinitialized
Nodeguard Error: 	Line: 4541193	2018-08-09 17:38:35.824577 - START
Nodeguard Error: 	Line: 4541194	2018-08-09 17:38:35.827576 - STOP
Solution: Self-recovery
Nodeguard Error: 	Line: 4542718	2018-08-09 17:42:55.827124 - START
Nodeguard Error: 	Line: 4542719	2018-08-09 17:42:55.830112 - STOP
Solution: Life Guarding, CAN-controller has been reinitialized
	Digital Error: 	Line: 4542835	2018-08-09 17:43:08.717336 Msg: No response.. - START
	Digital Error: 	Line: 4542837	2018-08-09 17:43:10.326369 Amount: 1 - STOP
	Solution: Life Guarding, CAN-controller has been reinitialized
Nodeguard Error: 	Line: 4542849	2018-08-09 17:43:15.827468 - START
Nodeguard Error: 	Line: 4542850	2018-08-09 17:43:15.830460 - STOP
Solution: Life Guarding, CAN-controller has been reinitialized
Nodeguard Error: 	Line: 4543088	2018-08-09 17:43:55.828172 - START
Nodeguard Error: 	Line: 4543089	2018-08-09 17:43:55.831166 - STOP
Solution: Life Guarding, CAN-controller has been reinitialized
	Digital Error: 	Line: 4546164	2018-08-09 17:52:10.501802 Msg: Multiple response.. - START
	Digital Error: 	Line: 4546486	2018-08-09 17:53:23.190066 Amount: 4 - STOP
	Solution: Life Guarding, CAN-controller has been reinitialized
Nodeguard Error: 	Line: 4546721	2018-08-09 17:53:55.833651 - START
Nodeguard Error: 	Line: 4546722	2018-08-09 17:53:55.836646 - STOP
Solution: Life Guarding, CAN-controller has been reinitialized
Nodeguard Error: 	Line: 4548662	2018-08-09 17:59:15.837235 - START
Nodeguard Error: 	Line: 4548663	2018-08-09 17:59:15.839237 - STOP
Solution: Self-recovery
	Digital Error: 	Line: 4548675	2018-08-09 17:59:20.533309 Msg: No response.. - START
	Digital Error: 	Line: 4549037	2018-08-09 18:00:23.077397 Amount: 3 - STOP
	Solution: Self-recovery
Nodeguard Error: 	Line: 4550024	2018-08-09 18:02:55.839066 - START
Nodeguard Error: 	Line: 4550025	2018-08-09 18:02:55.842062 - STOP
Solution: Self-recovery
Nodeguard Error: 	Line: 4550254	2018-08-09 18:03:35.839775 - START
Nodeguard Error: 	Line: 4550255	2018-08-09 18:03:35.841765 - STOP
Solution: Self-recovery
Nodeguard Error: 	Line: 4550494	2018-08-09 18:04:15.839466 - START
Nodeguard Error: 	Line: 4550495	2018-08-09 18:04:15.842464 - STOP
Solution: Self-recovery
Nodeguard Error: 	Line: 4551785	2018-08-09 18:07:55.842295 - START
Nodeguard Error: 	Line: 4551786	2018-08-09 18:07:55.844306 - STOP
Solution: Life Guarding, CAN-controller has been reinitialized
Nodeguard Error: 	Line: 4553670	2018-08-09 18:13:15.844893 - START
Nodeguard Error: 	Line: 4553671	2018-08-09 18:13:15.847887 - STOP
Solution: Self-recovery
Nodeguard Error: 	Line: 4553904	2018-08-09 18:13:55.845586 - START
Nodeguard Error: 	Line: 4553905	2018-08-09 18:13:55.848591 - STOP
Solution: Self-recovery
Nodeguard Error: 	Line: 4557064	2018-08-09 18:22:35.849648 - START
Nodeguard Error: 	Line: 4557065	2018-08-09 18:22:35.852643 - STOP
Solution: Self-recovery
Nodeguard Error: 	Line: 4559425	2018-08-09 18:25:45.851953 - START
Nodeguard Error: 	Line: 4559426	2018-08-09 18:25:45.853952 - STOP
Solution: Self-recovery
Nodeguard Error: 	Line: 4559658	2018-08-09 18:26:05.852298 - START
Nodeguard Error: 	Line: 4559659	2018-08-09 18:26:05.874293 - STOP
Solution: Self-recovery
		ADC Error: 	Line: 4560182	2018-08-09 18:27:05.240323 Msg: No ADC response from SYNC - START
		ADC Error: 	Line: 4560184	2018-08-09 18:27:05.322324 - STOP
		Reason: Unknown Solution: Self-recovery
Nodeguard Error: 	Line: 4560571	2018-08-09 18:27:35.852855 - START
Nodeguard Error: 	Line: 4560572	2018-08-09 18:27:35.855849 - STOP
Solution: Self-recovery
Nodeguard Error: 	Line: 4560786	2018-08-09 18:27:55.853209 - START
Nodeguard Error: 	Line: 4560787	2018-08-09 18:27:55.856208 - STOP
Solution: Self-recovery
Nodeguard Error: 	Line: 4560979	2018-08-09 18:28:15.853553 - START
Nodeguard Error: 	Line: 4560980	2018-08-09 18:28:15.855560 - STOP
Solution: Self-recovery
Nodeguard Error: 	Line: 4561183	2018-08-09 18:28:35.853901 - START
Nodeguard Error: 	Line: 4561184	2018-08-09 18:28:35.855907 - STOP
Solution: Self-recovery
	Digital Error: 	Line: 4561574	2018-08-09 18:29:09.977489 Msg: No response.. - START
Nodeguard Error: 	Line: 4562107	2018-08-09 18:30:05.854461 - START
Nodeguard Error: 	Line: 4562108	2018-08-09 18:30:05.856459 - STOP
Solution: Self-recovery
Nodeguard Error: 	Line: 4562357	2018-08-09 18:30:35.853985 - START
Nodeguard Error: 	Line: 4562358	2018-08-09 18:30:35.972990 - STOP
Solution: Self-recovery
	Digital Error: 	Line: 4562477	2018-08-09 18:30:53.902304 Amount: 4 - STOP
	Solution: Self-recovery
		ADC Error: 	Line: 4562550	2018-08-09 18:31:05.241493 Msg: No ADC response from SYNC - START
		ADC Error: 	Line: 4562551	2018-08-09 18:31:05.401496 - STOP
		Reason: Unknown Solution: Self-recovery
Nodeguard Error: 	Line: 4563083	2018-08-09 18:32:05.855556 - START
Nodeguard Error: 	Line: 4563206	2018-08-09 18:32:15.858731 - STOP
Solution: Self-recovery
Nodeguard Error: 	Line: 4563384	2018-08-09 18:32:35.856079 - START
Nodeguard Error: 	Line: 4563385	2018-08-09 18:32:35.860083 - STOP
Solution: Self-recovery
	Digital Error: 	Line: 4563394	2018-08-09 18:32:37.366095 Msg: No response.. - START
Nodeguard Error: 	Line: 4563592	2018-08-09 18:32:55.855424 - START
Nodeguard Error: 	Line: 4563593	2018-08-09 18:32:55.859429 - STOP
Solution: Self-recovery
	Digital Error: 	Line: 4564422	2018-08-09 18:34:20.142893 Amount: 4 - STOP
	Solution: Self-recovery
Nodeguard Error: 	Line: 4564665	2018-08-09 18:34:45.857338 - START
Nodeguard Error: 	Line: 4564666	2018-08-09 18:34:45.859344 - STOP
Solution: Self-recovery
Nodeguard Error: 	Line: 4564812	2018-08-09 18:35:05.856686 - START
Nodeguard Error: 	Line: 4564932	2018-08-09 18:35:15.952862 - STOP
Solution: Self-recovery
Nodeguard Error: 	Line: 4565176	2018-08-09 18:35:45.857393 - START
Nodeguard Error: 	Line: 4565178	2018-08-09 18:35:45.860388 - STOP
Solution: Self-recovery
Nodeguard Error: 	Line: 4565492	2018-08-09 18:36:15.857903 - START
Nodeguard Error: 	Line: 4565493	2018-08-09 18:36:15.885909 - STOP
Solution: Self-recovery
		ADC Error: 	Line: 4565831	2018-08-09 18:37:05.244757 Msg: No ADC response from SYNC - START
		ADC Error: 	Line: 4565833	2018-08-09 18:37:05.325764 - STOP
		Reason: Unknown Solution: Self-recovery
Nodeguard Error: 	Line: 4566159	2018-08-09 18:37:35.858297 - START
Nodeguard Error: 	Line: 4566160	2018-08-09 18:37:35.863299 - STOP
Solution: Self-recovery
Nodeguard Error: 	Line: 4566394	2018-08-09 18:37:55.858646 - START
Nodeguard Error: 	Line: 4566395	2018-08-09 18:37:55.861644 - STOP
Solution: Self-recovery
Nodeguard Error: 	Line: 4566576	2018-08-09 18:38:15.859000 - START
Nodeguard Error: 	Line: 4566577	2018-08-09 18:38:15.861000 - STOP
Solution: Self-recovery
Nodeguard Error: 	Line: 4566945	2018-08-09 18:38:55.859698 - START
Nodeguard Error: 	Line: 4566946	2018-08-09 18:38:55.861688 - STOP
Solution: Self-recovery
Nodeguard Error: 	Line: 4567234	2018-08-09 18:39:25.859210 - START
Nodeguard Error: 	Line: 4567235	2018-08-09 18:39:25.862201 - STOP
Solution: Self-recovery
Nodeguard Error: 	Line: 4567343	2018-08-09 18:39:55.859736 - START
Nodeguard Error: 	Line: 4567440	2018-08-09 18:40:35.864419 - STOP
Solution: Self-recovery
		ADC Error: 	Line: 4567462	2018-08-09 18:41:25.245275 Msg: No ADC response from SYNC - START
		ADC Error: 	Line: 4567466	2018-08-09 18:41:25.867298 - STOP
		Reason: Unknown Solution: Self-recovery
Nodeguard Error: 	Line: 4567539	2018-08-09 18:41:35.860469 - START
Nodeguard Error: 	Line: 4567540	2018-08-09 18:41:35.865461 - STOP
Solution: Self-recovery
Nodeguard Error: 	Line: 4567625	2018-08-09 18:41:55.860822 - START
Nodeguard Error: 	Line: 4567626	2018-08-09 18:41:55.863818 - STOP
Solution: Self-recovery
Nodeguard Error: 	Line: 4567708	2018-08-09 18:42:15.861170 - START
Nodeguard Error: 	Line: 4567709	2018-08-09 18:42:15.878553 - STOP
Solution: Self-recovery
Nodeguard Error: 	Line: 4567804	2018-08-09 18:42:35.861510 - START
Nodeguard Error: 	Line: 4567805	2018-08-09 18:42:35.865506 - STOP
Solution: Self-recovery
Nodeguard Error: 	Line: 4567904	2018-08-09 18:42:55.861865 - START
Nodeguard Error: 	Line: 4567905	2018-08-09 18:42:55.864863 - STOP
Solution: Self-recovery
Nodeguard Error: 	Line: 4568111	2018-08-09 18:43:45.862732 - START
Nodeguard Error: 	Line: 4568112	2018-08-09 18:43:45.864726 - STOP
Solution: Self-recovery
Nodeguard Error: 	Line: 4568341	2018-08-09 18:44:35.862600 - START
		ADC Error: 	Line: 4568373	2018-08-09 18:45:25.246440 Msg: No ADC response from SYNC - START
Nodeguard Error: 	Line: 4568380	2018-08-09 18:45:35.866627 - STOP
Solution: Self-recovery
		ADC Error: 	Line: 4568384	2018-08-09 18:45:45.691796 - STOP
		Reason: Unknown Solution: Self-recovery
Nodeguard Error: 	Line: 4568571	2018-08-09 18:46:35.863678 - START
Nodeguard Error: 	Line: 4568572	2018-08-09 18:46:35.868678 - STOP
Solution: Self-recovery
Nodeguard Error: 	Line: 4568653	2018-08-09 18:46:55.864026 - START
Nodeguard Error: 	Line: 4568654	2018-08-09 18:46:55.867019 - STOP
Solution: Self-recovery
Nodeguard Error: 	Line: 4568745	2018-08-09 18:47:15.864376 - START
Nodeguard Error: 	Line: 4568746	2018-08-09 18:47:15.868369 - STOP
Solution: Self-recovery
Nodeguard Error: 	Line: 4568929	2018-08-09 18:47:55.864066 - START
Nodeguard Error: 	Line: 4568930	2018-08-09 18:47:55.869063 - STOP
Solution: Self-recovery
Nodeguard Error: 	Line: 4569143	2018-08-09 18:48:45.864932 - START
Nodeguard Error: 	Line: 4569144	2018-08-09 18:48:45.868919 - STOP
Solution: Self-recovery
Nodeguard Error: 	Line: 4569287	2018-08-09 18:49:15.865447 - START
Nodeguard Error: 	Line: 4569318	2018-08-09 18:49:25.867613 - STOP
Solution: Self-recovery
Nodeguard Error: 	Line: 4569396	2018-08-09 18:49:55.866139 - START
Nodeguard Error: 	Line: 4569397	2018-08-09 18:49:55.869137 - STOP
Solution: Self-recovery
		ADC Error: 	Line: 4569414	2018-08-09 18:50:25.247639 Msg: No ADC response from SYNC - START
		ADC Error: 	Line: 4569417	2018-08-09 18:50:25.683656 - STOP
		Reason: Unknown Solution: Self-recovery
Nodeguard Error: 	Line: 4569492	2018-08-09 18:50:35.865837 - START
Nodeguard Error: 	Line: 4569493	2018-08-09 18:50:35.868823 - STOP
Solution: Self-recovery
Nodeguard Error: 	Line: 4569681	2018-08-09 18:51:35.866876 - START
Nodeguard Error: 	Line: 4569682	2018-08-09 18:51:35.869872 - STOP
Solution: Self-recovery
Nodeguard Error: 	Line: 4569974	2018-08-09 18:52:35.866918 - START
Nodeguard Error: 	Line: 4569975	2018-08-09 18:52:35.869915 - STOP
Solution: Self-recovery
Nodeguard Error: 	Line: 4570086	2018-08-09 18:53:05.867434 - START
Nodeguard Error: 	Line: 4570088	2018-08-09 18:53:05.872431 - STOP
Solution: Self-recovery
Nodeguard Error: 	Line: 4570172	2018-08-09 18:53:25.867785 - START
Nodeguard Error: 	Line: 4570174	2018-08-09 18:53:25.871782 - STOP
Solution: Self-recovery
Nodeguard Error: 	Line: 4570341	2018-08-09 18:54:05.868468 - START
Nodeguard Error: 	Line: 4570342	2018-08-09 18:54:05.870474 - STOP
Solution: Self-recovery
Nodeguard Error: 	Line: 4570492	2018-08-09 18:54:35.867999 - START
Nodeguard Error: 	Line: 4570507	2018-08-09 18:54:55.872346 - STOP
Solution: Self-recovery
		ADC Error: 	Line: 4570529	2018-08-09 18:55:25.248839 Msg: No ADC response from SYNC - START
		ADC Error: 	Line: 4570549	2018-08-09 18:55:45.332196 - STOP
		Reason: Unknown Solution: Self-recovery
Nodeguard Error: 	Line: 4570812	2018-08-09 18:56:35.869080 - START
Nodeguard Error: 	Line: 4570813	2018-08-09 18:56:35.872075 - STOP
Solution: Self-recovery
Nodeguard Error: 	Line: 4570991	2018-08-09 18:57:15.869772 - START
Nodeguard Error: 	Line: 4570992	2018-08-09 18:57:15.872761 - STOP
Solution: Self-recovery
Nodeguard Error: 	Line: 4571201	2018-08-09 18:58:05.870635 - START
Nodeguard Error: 	Line: 4571462	2018-08-09 18:59:05.873673 - STOP
Solution: Self-recovery
	Digital Error: 	Line: 4571525	2018-08-09 18:59:09.688731 Msg: No response.. - START
	Digital Error: 	Line: 4571526	2018-08-09 18:59:09.693730 Amount: 1 - STOP
	Solution: Self-recovery
Nodeguard Error: 	Line: 4571554	2018-08-09 18:59:25.871025 - START
Nodeguard Error: 	Line: 4571555	2018-08-09 18:59:25.874022 - STOP
Solution: Self-recovery
Nodeguard Error: 	Line: 4571634	2018-08-09 18:59:55.871541 - START
Nodeguard Error: 	Line: 4571635	2018-08-09 18:59:55.875541 - STOP
Solution: Self-recovery
		ADC Error: 	Line: 4571645	2018-08-09 19:00:25.250039 Msg: No ADC response from SYNC - START
		ADC Error: 	Line: 4571647	2018-08-09 19:00:25.344048 - STOP
		Reason: Unknown Solution: Self-recovery
Nodeguard Error: 	Line: 4571994	2018-08-09 19:01:35.872279 - START
Nodeguard Error: 	Line: 4571995	2018-08-09 19:01:35.875278 - STOP
Solution: Self-recovery
Nodeguard Error: 	Line: 4572164	2018-08-09 19:02:15.872970 - START
Nodeguard Error: 	Line: 4572165	2018-08-09 19:02:15.877549 - STOP
Solution: Self-recovery
Nodeguard Error: 	Line: 4572358	2018-08-09 19:03:05.872831 - START
Nodeguard Error: 	Line: 4572359	2018-08-09 19:03:05.875828 - STOP
Solution: Self-recovery
Nodeguard Error: 	Line: 4572622	2018-08-09 19:04:25.874224 - START
Nodeguard Error: 	Line: 4572692	2018-08-09 19:04:35.876393 - STOP
Solution: Self-recovery
Nodeguard Error: 	Line: 4572959	2018-08-09 19:05:55.874788 - START
Nodeguard Error: 	Line: 4572960	2018-08-09 19:05:55.877554 - STOP
Solution: Self-recovery
Nodeguard Error: 	Line: 4573153	2018-08-09 19:06:35.875483 - START
Nodeguard Error: 	Line: 4573154	2018-08-09 19:06:35.879474 - STOP
Solution: Self-recovery
Nodeguard Error: 	Line: 4573241	2018-08-09 19:06:55.874830 - START
Nodeguard Error: 	Line: 4573242	2018-08-09 19:06:55.878826 - STOP
Solution: Self-recovery
Nodeguard Error: 	Line: 4573605	2018-08-09 19:08:35.876555 - START
		ADC Error: 	Line: 4573625	2018-08-09 19:09:05.253063 Msg: No ADC response from SYNC - START
		ADC Error: 	Line: 4573627	2018-08-09 19:09:05.504064 - STOP
		Reason: Unknown Solution: Self-recovery
Nodeguard Error: 	Line: 4573646	2018-08-09 19:09:05.879069 - STOP
Solution: Self-recovery
Nodeguard Error: 	Line: 4573811	2018-08-09 19:09:35.876605 - START
Nodeguard Error: 	Line: 4573815	2018-08-09 19:09:36.373600 - STOP
Solution: Self-recovery
Nodeguard Error: 	Line: 4574184	2018-08-09 19:11:15.877341 - START
Nodeguard Error: 	Line: 4574185	2018-08-09 19:11:15.881337 - STOP
Solution: Self-recovery
Nodeguard Error: 	Line: 4574278	2018-08-09 19:11:35.877559 - START
Nodeguard Error: 	Line: 4574279	2018-08-09 19:11:35.880681 - STOP
Solution: Self-recovery
Nodeguard Error: 	Line: 4574361	2018-08-09 19:11:55.878028 - START
Nodeguard Error: 	Line: 4574362	2018-08-09 19:11:55.883031 - STOP
Solution: Self-recovery
Nodeguard Error: 	Line: 4574456	2018-08-09 19:12:15.878379 - START
Nodeguard Error: 	Line: 4574457	2018-08-09 19:12:15.883376 - STOP
Solution: Self-recovery
Nodeguard Error: 	Line: 4574760	2018-08-09 19:13:25.878597 - START
Nodeguard Error: 	Line: 4574820	2018-08-09 19:13:36.079767 - STOP
Solution: Self-recovery
Nodeguard Error: 	Line: 4575077	2018-08-09 19:14:35.879808 - START
Nodeguard Error: 	Line: 4575171	2018-08-09 19:14:55.883157 - STOP
Solution: Self-recovery
		ADC Error: 	Line: 4575200	2018-08-09 19:15:45.255001 Msg: No ADC response from SYNC - START
		ADC Error: 	Line: 4575203	2018-08-09 19:15:45.341009 - STOP
		Reason: Unknown Solution: Self-recovery
Nodeguard Error: 	Line: 4575282	2018-08-09 19:15:55.880201 - START
Nodeguard Error: 	Line: 4575283	2018-08-09 19:15:55.883194 - STOP
Solution: Self-recovery
Nodeguard Error: 	Line: 4575439	2018-08-09 19:16:35.880890 - START
Nodeguard Error: 	Line: 4575440	2018-08-09 19:16:35.884893 - STOP
Solution: Self-recovery
Nodeguard Error: 	Line: 4575519	2018-08-09 19:16:55.881234 - START
Nodeguard Error: 	Line: 4575520	2018-08-09 19:16:55.886238 - STOP
Solution: Self-recovery
Nodeguard Error: 	Line: 4575614	2018-08-09 19:17:15.880589 - START
Nodeguard Error: 	Line: 4575615	2018-08-09 19:17:15.884585 - STOP
Solution: Self-recovery
Nodeguard Error: 	Line: 4575995	2018-08-09 19:18:45.882160 - START
Nodeguard Error: 	Line: 4575996	2018-08-09 19:18:45.884150 - STOP
Solution: Self-recovery
Nodeguard Error: 	Line: 4576070	2018-08-09 19:19:15.881678 - START
Nodeguard Error: 	Line: 4576071	2018-08-09 19:19:15.884668 - STOP
Solution: Self-recovery
Nodeguard Error: 	Line: 4576159	2018-08-09 19:19:45.882196 - START
Nodeguard Error: 	Line: 4576160	2018-08-09 19:19:45.885190 - STOP
Solution: Self-recovery
		ADC Error: 	Line: 4576202	2018-08-09 19:20:45.257220 Msg: No ADC response from SYNC - START
		ADC Error: 	Line: 4576205	2018-08-09 19:20:45.816239 - STOP
		Reason: Unknown Solution: Self-recovery
Nodeguard Error: 	Line: 4576467	2018-08-09 19:21:35.884097 - START
Nodeguard Error: 	Line: 4576468	2018-08-09 19:21:35.888098 - STOP
Solution: Self-recovery
Nodeguard Error: 	Line: 4576560	2018-08-09 19:21:55.883451 - START
Nodeguard Error: 	Line: 4576561	2018-08-09 19:21:55.886446 - STOP
Solution: Self-recovery
Nodeguard Error: 	Line: 4576641	2018-08-09 19:22:15.883806 - START
Nodeguard Error: 	Line: 4576642	2018-08-09 19:22:15.886801 - STOP
Solution: Self-recovery
Nodeguard Error: 	Line: 4576978	2018-08-09 19:22:55.884502 - START
Nodeguard Error: 	Line: 4576979	2018-08-09 19:22:55.887492 - STOP
Solution: Self-recovery
Nodeguard Error: 	Line: 4577760	2018-08-09 19:25:35.886277 - START
Nodeguard Error: 	Line: 4577761	2018-08-09 19:25:35.888273 - STOP
Solution: Self-recovery
Nodeguard Error: 	Line: 4577937	2018-08-09 19:26:15.885981 - START
Nodeguard Error: 	Line: 4577938	2018-08-09 19:26:15.888980 - STOP
Solution: Self-recovery
Nodeguard Error: 	Line: 4578032	2018-08-09 19:26:35.886327 - START
Nodeguard Error: 	Line: 4578033	2018-08-09 19:26:35.889327 - STOP
Solution: Self-recovery
Nodeguard Error: 	Line: 4578119	2018-08-09 19:26:55.886675 - START
Nodeguard Error: 	Line: 4578120	2018-08-09 19:26:55.889667 - STOP
Solution: Self-recovery
Nodeguard Error: 	Line: 4578306	2018-08-09 19:27:35.887367 - START
Nodeguard Error: 	Line: 4578307	2018-08-09 19:27:35.890371 - STOP
Solution: Self-recovery
Nodeguard Error: 	Line: 4579009	2018-08-09 19:30:25.889313 - START
Nodeguard Error: 	Line: 4579010	2018-08-09 19:30:25.892319 - STOP
Solution: Self-recovery
Nodeguard Error: 	Line: 4579243	2018-08-09 19:31:35.889547 - START
Nodeguard Error: 	Line: 4579244	2018-08-09 19:31:35.892545 - STOP
Solution: Self-recovery
Nodeguard Error: 	Line: 4579340	2018-08-09 19:31:55.889889 - START
Nodeguard Error: 	Line: 4579341	2018-08-09 19:31:55.892891 - STOP
Solution: Self-recovery
Nodeguard Error: 	Line: 4579432	2018-08-09 19:32:15.890230 - START
Nodeguard Error: 	Line: 4579433	2018-08-09 19:32:15.893238 - STOP
Solution: Self-recovery
Nodeguard Error: 	Line: 4580731	2018-08-09 19:37:15.892451 - START
Nodeguard Error: 	Line: 4580732	2018-08-09 19:37:15.895456 - STOP
Solution: Self-recovery
Nodeguard Error: 	Line: 4580819	2018-08-09 19:37:35.892808 - START
Nodeguard Error: 	Line: 4580820	2018-08-09 19:37:35.895803 - STOP
Solution: Self-recovery
Nodeguard Error: 	Line: 4580895	2018-08-09 19:37:55.893156 - START
Nodeguard Error: 	Line: 4580896	2018-08-09 19:37:55.896150 - STOP
Solution: Self-recovery
Nodeguard Error: 	Line: 4580992	2018-08-09 19:38:15.893498 - START
Nodeguard Error: 	Line: 4580993	2018-08-09 19:38:15.896503 - STOP
Solution: Self-recovery
Nodeguard Error: 	Line: 4581081	2018-08-09 19:38:35.893852 - START
Nodeguard Error: 	Line: 4581082	2018-08-09 19:38:35.895849 - STOP
Solution: Self-recovery
Nodeguard Error: 	Line: 4582339	2018-08-09 19:43:35.896072 - START
Nodeguard Error: 	Line: 4582340	2018-08-09 19:43:35.899063 - STOP
Solution: Self-recovery
Nodeguard Error: 	Line: 4582439	2018-08-09 19:43:55.896407 - START
Nodeguard Error: 	Line: 4582440	2018-08-09 19:43:55.899403 - STOP
Solution: Self-recovery
Nodeguard Error: 	Line: 4583652	2018-08-09 19:48:35.899281 - START
Nodeguard Error: 	Line: 4583653	2018-08-09 19:48:35.902280 - STOP
Solution: Self-recovery
Nodeguard Error: 	Line: 4583741	2018-08-09 19:48:55.899629 - START
Nodeguard Error: 	Line: 4583742	2018-08-09 19:48:55.902619 - STOP
Solution: Self-recovery
Nodeguard Error: 	Line: 4583841	2018-08-09 19:49:15.899984 - START
Nodeguard Error: 	Line: 4583842	2018-08-09 19:49:15.902973 - STOP
Solution: Self-recovery
Nodeguard Error: 	Line: 4583942	2018-08-09 19:49:35.900315 - START
Nodeguard Error: 	Line: 4583943	2018-08-09 19:49:35.903316 - STOP
Solution: Self-recovery
Nodeguard Error: 	Line: 4584027	2018-08-09 19:49:55.900665 - START
Nodeguard Error: 	Line: 4584028	2018-08-09 19:49:55.903674 - STOP
Solution: Self-recovery
Nodeguard Error: 	Line: 4584113	2018-08-09 19:50:15.901012 - START
Nodeguard Error: 	Line: 4584114	2018-08-09 19:50:15.903015 - STOP
Solution: Self-recovery
Nodeguard Error: 	Line: 4585097	2018-08-09 19:54:15.903198 - START
Nodeguard Error: 	Line: 4585098	2018-08-09 19:54:15.906195 - STOP
Solution: Self-recovery
Nodeguard Error: 	Line: 4585183	2018-08-09 19:54:35.903541 - START
Nodeguard Error: 	Line: 4585184	2018-08-09 19:54:35.905541 - STOP
Solution: Self-recovery
Nodeguard Error: 	Line: 4585271	2018-08-09 19:54:55.903885 - START
Nodeguard Error: 	Line: 4585272	2018-08-09 19:54:55.905894 - STOP
Solution: Self-recovery
Nodeguard Error: 	Line: 4585357	2018-08-09 19:55:15.903237 - START
Nodeguard Error: 	Line: 4585358	2018-08-09 19:55:15.906232 - STOP
Solution: Self-recovery
Nodeguard Error: 	Line: 4585445	2018-08-09 19:55:35.903586 - START
Nodeguard Error: 	Line: 4585446	2018-08-09 19:55:35.906581 - STOP
Solution: Self-recovery
Nodeguard Error: 	Line: 4585528	2018-08-09 19:55:55.903938 - START
Nodeguard Error: 	Line: 4585529	2018-08-09 19:55:55.906933 - STOP
Solution: Self-recovery
Nodeguard Error: 	Line: 4586695	2018-08-09 20:00:35.906815 - START
Nodeguard Error: 	Line: 4586696	2018-08-09 20:00:35.909807 - STOP
Solution: Self-recovery
Nodeguard Error: 	Line: 4586802	2018-08-09 20:00:55.907167 - START
Nodeguard Error: 	Line: 4586803	2018-08-09 20:00:55.909164 - STOP
Solution: Self-recovery
Nodeguard Error: 	Line: 4586877	2018-08-09 20:01:15.906512 - START
Nodeguard Error: 	Line: 4586878	2018-08-09 20:01:15.909506 - STOP
Solution: Self-recovery
Nodeguard Error: 	Line: 4586975	2018-08-09 20:01:35.906866 - START
Nodeguard Error: 	Line: 4586976	2018-08-09 20:01:35.909861 - STOP
Solution: Self-recovery
Nodeguard Error: 	Line: 4587757	2018-08-09 20:04:45.909166 - START
Nodeguard Error: 	Line: 4587825	2018-08-09 20:04:55.912350 - STOP
Solution: Self-recovery
Nodeguard Error: 	Line: 4588068	2018-08-09 20:05:55.911398 - START
Nodeguard Error: 	Line: 4588069	2018-08-09 20:05:55.914383 - STOP
Solution: Self-recovery
Nodeguard Error: 	Line: 4588161	2018-08-09 20:06:15.910744 - START
Nodeguard Error: 	Line: 4588162	2018-08-09 20:06:15.913728 - STOP
Solution: Self-recovery
Nodeguard Error: 	Line: 4588343	2018-08-09 20:06:55.911443 - START
Nodeguard Error: 	Line: 4588344	2018-08-09 20:06:55.914434 - STOP
Solution: Self-recovery
Nodeguard Error: 	Line: 4588431	2018-08-09 20:07:15.911791 - START
Nodeguard Error: 	Line: 4588432	2018-08-09 20:07:15.914782 - STOP
Solution: Self-recovery
Nodeguard Error: 	Line: 4589462	2018-08-09 20:11:15.913973 - START
Nodeguard Error: 	Line: 4589463	2018-08-09 20:11:15.916970 - STOP
Solution: Self-recovery
Nodeguard Error: 	Line: 4589723	2018-08-09 20:12:15.914020 - START
Nodeguard Error: 	Line: 4589724	2018-08-09 20:12:15.917012 - STOP
Solution: Self-recovery
Nodeguard Error: 	Line: 4590059	2018-08-09 20:13:35.915412 - START
Nodeguard Error: 	Line: 4590060	2018-08-09 20:13:35.918411 - STOP
Solution: Self-recovery
Nodeguard Error: 	Line: 4590222	2018-08-09 20:14:15.915106 - START
Nodeguard Error: 	Line: 4590223	2018-08-09 20:14:15.918108 - STOP
Solution: Self-recovery
Nodeguard Error: 	Line: 4590310	2018-08-09 20:14:35.915462 - START
Nodeguard Error: 	Line: 4590311	2018-08-09 20:14:35.918453 - STOP
Solution: Self-recovery
Nodeguard Error: 	Line: 4590734	2018-08-09 20:16:15.916205 - START
Nodeguard Error: 	Line: 4590735	2018-08-09 20:16:15.919200 - STOP
Solution: Self-recovery
Nodeguard Error: 	Line: 4590834	2018-08-09 20:16:45.916732 - START
Nodeguard Error: 	Line: 4590920	2018-08-09 20:16:55.919895 - STOP
Solution: Self-recovery
Nodeguard Error: 	Line: 4590996	2018-08-09 20:17:15.917253 - START
Nodeguard Error: 	Line: 4590997	2018-08-09 20:17:15.920243 - STOP
Solution: Self-recovery
Nodeguard Error: 	Line: 4591079	2018-08-09 20:17:35.917601 - START
Nodeguard Error: 	Line: 4591080	2018-08-09 20:17:35.920590 - STOP
Solution: Self-recovery
Nodeguard Error: 	Line: 4591315	2018-08-09 20:18:35.917634 - START
Nodeguard Error: 	Line: 4591316	2018-08-09 20:18:35.920638 - STOP
Solution: Self-recovery
Nodeguard Error: 	Line: 4592173	2018-08-09 20:22:25.919648 - START
Nodeguard Error: 	Line: 4592174	2018-08-09 20:22:25.922645 - STOP
Solution: Self-recovery
	Digital Error: 	Line: 4593810	2018-08-09 20:29:43.333252 Msg: No response.. - START
	Digital Error: 	Line: 4593811	2018-08-09 20:29:43.336252 Amount: 1 - STOP
	Solution: Self-recovery
Nodeguard Error: 	Line: 4627727	2018-08-09 23:18:36.020594 - START
Nodeguard Error: 	Line: 4627728	2018-08-09 23:18:36.023595 - STOP
Solution: External Reset - analog
Nodeguard Error: 	Line: 4628149	2018-08-09 23:19:36.021641 - START
Nodeguard Error: 	Line: 4628150	2018-08-09 23:19:36.024629 - STOP
Solution: External Reset - analog
Nodeguard Error: 	Line: 4628554	2018-08-09 23:20:36.021682 - START
Nodeguard Error: 	Line: 4628555	2018-08-09 23:20:36.024670 - STOP
Solution: External Reset - analog
Nodeguard Error: 	Line: 4628862	2018-08-09 23:21:16.022383 - START
Nodeguard Error: 	Line: 4628863	2018-08-09 23:21:16.025375 - STOP
Solution: External Reset - analog
Nodeguard Error: 	Line: 4629627	2018-08-09 23:25:46.025077 - START
Nodeguard Error: 	Line: 4629628	2018-08-09 23:25:46.027072 - STOP
Solution: Self-recovery
		ADC Error: 	Line: 4629719	2018-08-09 23:29:25.328877 Msg: No ADC response from SYNC - START
		ADC Error: 	Line: 4629721	2018-08-09 23:29:25.402878 - STOP
		Reason: ADC: Reset failed Solution: External Reset - analog
Nodeguard Error: 	Line: 4629985	2018-08-09 23:29:56.027426 - START
Nodeguard Error: 	Line: 4629986	2018-08-09 23:29:56.029415 - STOP
Solution: External Reset - analog
Nodeguard Error: 	Line: 4630651	2018-08-09 23:31:06.027646 - START
Nodeguard Error: 	Line: 4630652	2018-08-09 23:31:06.030640 - STOP
Solution: External Reset - analog
Nodeguard Error: 	Line: 4632247	2018-08-09 23:33:56.028600 - START
Nodeguard Error: 	Line: 4632248	2018-08-09 23:33:56.031597 - STOP
Solution: External Reset - analog
		ADC Error: 	Line: 4632464	2018-08-09 23:34:25.330099 Msg: No ADC response from SYNC - START
		ADC Error: 	Line: 4632466	2018-08-09 23:34:25.409099 - STOP
		Reason: Unknown Solution: Self-recovery
Nodeguard Error: 	Line: 4632676	2018-08-09 23:35:56.029690 - START
Nodeguard Error: 	Line: 4632677	2018-08-09 23:35:56.032687 - STOP
Solution: External Reset - analog
Nodeguard Error: 	Line: 4632813	2018-08-09 23:36:16.030039 - START
Nodeguard Error: 	Line: 4633035	2018-08-09 23:36:46.033546 - STOP
Solution: External Reset - analog
Nodeguard Error: 	Line: 4633523	2018-08-09 23:37:56.030776 - START
Nodeguard Error: 	Line: 4633524	2018-08-09 23:37:56.319772 - STOP
Solution: External Reset - analog
Nodeguard Error: 	Line: 4633829	2018-08-09 23:38:36.031467 - START
Nodeguard Error: 	Line: 4633830	2018-08-09 23:38:36.034459 - STOP
Solution: External Reset - analog
Nodeguard Error: 	Line: 4634644	2018-08-09 23:40:26.032374 - START
Nodeguard Error: 	Line: 4634645	2018-08-09 23:40:26.035370 - STOP
Solution: Self-recovery
Nodeguard Error: 	Line: 4635046	2018-08-09 23:41:26.033430 - START
Nodeguard Error: 	Line: 4635047	2018-08-09 23:41:26.035425 - STOP
Solution: Self-recovery
Nodeguard Error: 	Line: 4635567	2018-08-09 23:42:36.033649 - START
Nodeguard Error: 	Line: 4635568	2018-08-09 23:42:36.036639 - STOP
Solution: Self-recovery
Nodeguard Error: 	Line: 4635976	2018-08-09 23:43:36.033680 - START
Nodeguard Error: 	Line: 4635977	2018-08-09 23:43:36.036690 - STOP
Solution: Self-recovery
Nodeguard Error: 	Line: 4636149	2018-08-09 23:43:56.034038 - START
Nodeguard Error: 	Line: 4636150	2018-08-09 23:43:56.041034 - STOP
Solution: Self-recovery
Nodeguard Error: 	Line: 4636478	2018-08-09 23:44:36.034737 - START
Nodeguard Error: 	Line: 4636479	2018-08-09 23:44:36.037720 - STOP
Solution: Self-recovery
Nodeguard Error: 	Line: 4636619	2018-08-09 23:44:56.035084 - START
Nodeguard Error: 	Line: 4636620	2018-08-09 23:44:56.039074 - STOP
Solution: Self-recovery
Nodeguard Error: 	Line: 4636800	2018-08-09 23:45:16.035424 - START
Nodeguard Error: 	Line: 4636801	2018-08-09 23:45:16.037421 - STOP
Solution: Self-recovery
Nodeguard Error: 	Line: 4636981	2018-08-09 23:45:56.035129 - START
Nodeguard Error: 	Line: 4636982	2018-08-09 23:45:56.038123 - STOP
Solution: Self-recovery
Nodeguard Error: 	Line: 4638328	2018-08-09 23:51:46.038214 - START
Nodeguard Error: 	Line: 4638329	2018-08-09 23:51:46.041217 - STOP
Solution: Self-recovery
Nodeguard Error: 	Line: 4638776	2018-08-09 23:53:56.040482 - START
Nodeguard Error: 	Line: 4638777	2018-08-09 23:53:56.043478 - STOP
Solution: External Reset - analog
Nodeguard Error: 	Line: 4664554	2018-08-10 01:59:16.111497 - START
	Digital Error: 	Line: 4664559	2018-08-10 01:59:39.034888 Msg: No response.. - START
		ADC Error: 	Line: 4664560	2018-08-10 01:59:45.372001 Msg: No ADC response from SYNC - START
		ADC Error: 	Line: 4667955	2018-08-10 07:30:05.542765 - STOP
		Reason: Unknown Solution: External Reset - can
Nodeguard Error: 	Line: 4667976	2018-08-10 07:30:06.306780 - STOP
Solution: External Reset - can
	Digital Error: 	Line: 4668029	2018-08-10 07:30:12.954889 Amount: 411 - STOP
	Solution: External Reset - can
Nodeguard Error: 	Line: 4739516	2018-08-10 11:51:56.479172 - START
	Digital Error: 	Line: 4739517	2018-08-10 11:52:04.808327 Msg: No response.. - START
		ADC Error: 	Line: 4739522	2018-08-10 11:52:25.541689 Msg: No ADC response from SYNC - START
Nodeguard Error: 	Line: 4742940	2018-08-10 17:25:16.700766 - STOP
Solution: External Reset - can, analog, digital
		ADC Error: 	Line: 4742984	2018-08-10 17:25:25.651918 - STOP
		Reason: ADC: Reset failed Solution: External Reset - can, analog, digital
	Digital Error: 	Line: 4743184	2018-08-10 17:26:12.138743 Amount: 407 - STOP
	Solution: External Reset - can, analog, digital
		ADC Error: 	Line: 4743267	2018-08-10 17:26:25.643970 Msg: No ADC response from SYNC - START
	Digital Error: 	Line: 4752163	2018-08-10 17:59:42.264040 Msg: No response.. - START
	Digital Error: 	Line: 4752568	2018-08-10 18:01:17.465713 Amount: 3 - STOP
	Solution: Self-recovery
Nodeguard Error: 	Line: 4764910	2018-08-10 18:42:16.875987 - START
Nodeguard Error: 	Line: 4764998	2018-08-10 18:42:26.748155 - STOP
Solution: Self-recovery
Nodeguard Error: 	Line: 4768172	2018-08-10 18:47:46.750792 - START
Nodeguard Error: 	Line: 4768173	2018-08-10 18:47:46.752790 - STOP
Solution: Life Guarding, CAN-controller has been reinitialized
	Digital Error: 	Line: 4773923	2018-08-10 18:57:23.312945 Msg: No response.. - START
	Digital Error: 	Line: 4773924	2018-08-10 18:57:24.264959 Amount: 1 - STOP
	Solution: Self-recovery
Nodeguard Error: 	Line: 4779406	2018-08-10 19:06:36.761704 - START
Nodeguard Error: 	Line: 4779407	2018-08-10 19:06:36.810711 - STOP
Solution: Self-recovery
Nodeguard Error: 	Line: 4780871	2018-08-10 19:09:06.763355 - START
Nodeguard Error: 	Line: 4780872	2018-08-10 19:09:06.765360 - STOP
Solution: Life Guarding, CAN-controller has been reinitialized
Nodeguard Error: 	Line: 4782903	2018-08-10 19:12:36.765067 - START
Nodeguard Error: 	Line: 4782905	2018-08-10 19:12:36.770056 - STOP
Solution: Life Guarding, CAN-controller has been reinitialized
Nodeguard Error: 	Line: 4785839	2018-08-10 19:17:36.768342 - START
Nodeguard Error: 	Line: 4785840	2018-08-10 19:17:36.800340 - STOP
Solution: Self-recovery
Nodeguard Error: 	Line: 4788218	2018-08-10 19:21:36.770580 - START
Nodeguard Error: 	Line: 4788434	2018-08-10 19:21:56.770928 - STOP
Solution: Life Guarding, CAN-controller has been reinitialized
Nodeguard Error: 	Line: 4789351	2018-08-10 19:23:26.771505 - START
Nodeguard Error: 	Line: 4789352	2018-08-10 19:23:26.774502 - STOP
Solution: Life Guarding, CAN-controller has been reinitialized
Nodeguard Error: 	Line: 4790465	2018-08-10 19:25:16.772451 - START
Nodeguard Error: 	Line: 4790466	2018-08-10 19:25:16.776445 - STOP
Solution: Self-recovery
Nodeguard Error: 	Line: 4796215	2018-08-10 19:35:06.778851 - START
Nodeguard Error: 	Line: 4796216	2018-08-10 19:35:06.781850 - STOP
Solution: Life Guarding, CAN-controller has been reinitialized
	Digital Error: 	Line: 4796986	2018-08-10 19:36:39.238482 Msg: No response.. - START
	Digital Error: 	Line: 4796990	2018-08-10 19:36:45.772601 Amount: 1 - STOP
	Solution: Self-recovery
Nodeguard Error: 	Line: 4796991	2018-08-10 19:36:46.779626 - START
	Digital Error: 	Line: 4797012	2018-08-10 19:38:59.584950 Msg: No response.. - START
Nodeguard Error: 	Line: 4798342	2018-08-10 21:46:16.864529 - STOP
Solution: Self-recovery
		ADC Error: 	Line: 4798436	2018-08-10 21:47:05.727381 - STOP
		Reason: ADC: Reset failed Solution: External Reset - can, analog, digital
		ADC Error: 	Line: 4798714	2018-08-10 21:48:05.720439 Msg: No ADC response from SYNC - START
	Digital Error: 	Line: 4798766	2018-08-10 21:48:19.321685 Amount: 142 - STOP
	Solution: External Reset - can, analog, digital
	Digital Error: 	Line: 4851823	2018-08-11 01:03:36.496020 Msg: No response.. - START
	Digital Error: 	Line: 4851824	2018-08-11 01:03:36.499019 Amount: 1 - STOP
	Solution: Self-recovery
	Digital Error: 	Line: 4969544	2018-08-11 08:22:11.887580 Msg: No response.. - START
	Digital Error: 	Line: 4969545	2018-08-11 08:22:11.891578 Amount: 1 - STOP
	Solution: Life Guarding, CAN-controller has been reinitialized
	Digital Error: 	Line: 5110154	2018-08-11 17:10:50.186001 Msg: No response.. - START
	Digital Error: 	Line: 5110821	2018-08-11 17:13:26.717747 Amount: 3 - STOP
	Solution: Self-recovery
	Digital Error: 	Line: 5184649	2018-08-11 21:51:02.198787 Msg: No response.. - START
	Digital Error: 	Line: 5185318	2018-08-11 21:53:38.049524 Amount: 3 - STOP
	Solution: Self-recovery
Nodeguard Error: 	Line: 5285839	2018-08-12 04:06:38.000054 - START
Nodeguard Error: 	Line: 5285840	2018-08-12 04:06:38.003051 - STOP
Solution: Self-recovery
Nodeguard Error: 	Line: 5291080	2018-08-12 04:24:38.009860 - START
Nodeguard Error: 	Line: 5291081	2018-08-12 04:24:38.012853 - STOP
Solution: Self-recovery
Nodeguard Error: 	Line: 5351411	2018-08-12 08:08:38.149600 - START
	Digital Error: 	Line: 5351439	2018-08-12 08:11:18.348382 Msg: No response.. - START
Nodeguard Error: 	Line: 5352499	2018-08-12 09:55:08.211609 - STOP
Solution: External Reset - can, analog, digital
Nodeguard Error: 	Line: 5352740	2018-08-12 09:56:27.808998 - START
Nodeguard Error: 	Line: 5352742	2018-08-12 09:56:28.212007 - STOP
Solution: External Reset - can, analog, digital
Nodeguard Error: 	Line: 5352749	2018-08-12 09:56:58.212529 - START
Nodeguard Error: 	Line: 5359556	2018-08-12 21:45:49.373106 - STOP
Solution: External Reset - can, digital
Nodeguard Error: 	Line: 5359559	2018-08-12 21:45:52.321155 - START
Nodeguard Error: 	Line: 5359565	2018-08-12 21:45:58.681267 - STOP
Solution: External Reset - can, digital
Nodeguard Error: 	Line: 5359574	2018-08-12 21:46:18.681621 - START
Nodeguard Error: 	Line: 5379931	2018-08-14 09:28:10.020504 - STOP
Solution: External Reset - can, analog, digital
Nodeguard Error: 	Line: 5379932	2018-08-14 09:28:20.019681 - START
